"nid","final_date"
"80855","2014-07-29"
"87994","2014-07-29"
"111702","2014-07-29"
"222109","2014-07-29"
"233301","2014-07-29"
"240828","2014-07-29"
"276153","2014-07-29"
"293318","2014-07-29"
"334024","2014-07-29"
"340723","2014-07-29"
"347988","2014-07-29"
"512026","2014-07-29"
"540294","2014-07-29"
"575298","2014-07-29"
"576508","2014-07-29"
"586146","2014-07-30"
"597236","2014-07-29"
"630446","2014-07-29"
"647964","2014-07-29"
"690544","2014-07-29"
"697760","2014-08-09"
"711650","2014-07-29"
"759844","2014-07-29"
"766170","2014-07-29"
"766382","2014-07-29"
"766458","2014-07-29"
"771448","2014-07-29"
"787896","2014-07-29"
"788900","2014-07-29"
"796692","2014-07-29"
"799932","2014-07-29"
"804864","2014-07-29"
"813540","2014-07-29"
"827906","2014-07-29"
"834848","2014-07-29"
"885946","2014-07-29"
"891112","2014-07-29"
"898634","2014-07-29"
"901128","2014-07-29"
"916388","2014-07-29"
"929166","2014-07-29"
"935062","2014-07-29"
"935258","2014-07-29"
"936686","2014-07-29"
"936844","2014-07-29"
"945524","2014-07-29"
"965272","2014-07-29"
"978944","2014-07-29"
"983632","2014-07-29"
"1000736","2014-07-29"
"1002048","2014-07-29"
"1008328","2014-07-29"
"1008410","2014-07-29"
"1008580","2014-07-29"
"1012768","2014-07-29"
"1023190","2014-07-29"
"1026878","2014-07-29"
"1047070","2014-07-29"
"1049462","2014-07-29"
"1053648","2014-07-29"
"1057912","2014-07-29"
"1059268","2014-07-29"
"1060246","2014-07-29"
"1065020","2014-07-29"
"1076414","2014-07-29"
"1077602","2014-07-29"
"1079966","2014-07-29"
"1081068","2014-07-29"
"1083982","2014-07-29"
"1085590","2014-07-29"
"1116416","2014-07-29"
"1118016","2014-07-29"
"1125662","2014-07-29"
"1139638","2014-07-29"
"1157426","2014-07-29"
"1160566","2014-07-29"
"1164682","2014-07-29"
"1165694","2014-07-29"
"1167350","2014-07-29"
"1167444","2014-07-29"
"1168246","2014-07-29"
"1169426","2014-07-29"
"1171436","2014-07-29"
"1174634","2014-07-29"
"1180642","2014-07-29"
"1183208","2014-07-29"
"1184082","2014-07-29"
"1184272","2014-07-29"
"1187906","2014-07-29"
"1188430","2014-07-29"
"1191236","2014-07-29"
"1192044","2014-07-29"
"1203886","2014-07-29"
"1204230","2014-07-29"
"1211864","2014-07-29"
"1214876","2014-07-29"
"1215716","2014-07-29"
"1216948","2014-07-29"
"1216972","2014-07-29"
"1227942","2014-07-29"
"1244784","2014-07-29"
"1245220","2014-07-29"
"1252178","2014-07-29"
"1259096","2014-07-29"
"1260800","2014-07-29"
"1272686","2014-07-29"
"1277776","2014-07-29"
"1279652","2014-07-29"
"1283892","2014-07-29"
"1285726","2014-08-02"
"1289536","2014-07-29"
"1290710","2014-07-29"
"1297370","2014-07-29"
"1301040","2014-07-29"
"1304486","2014-07-29"
"1309394","2014-07-29"
"1312802","2014-07-29"
"1321540","2014-07-29"
"1323120","2014-07-29"
"1323124","2014-07-29"
"1328900","2014-07-29"
"1333122","2014-07-29"
"1333192","2014-07-29"
"1335388","2014-07-29"
"1342662","2014-07-29"
"1346032","2014-07-29"
"1348162","2014-07-29"
"1351352","2014-07-29"
"1357918","2014-07-29"
"1361228","2014-07-29"
"1361232","2014-07-29"
"1361234","2014-07-29"
"1366020","2014-07-29"
"1374030","2014-07-29"
"1392174","2014-07-29"
"1404198","2014-07-29"
"1421410","2014-07-29"
"1439692","2014-07-29"
"1445224","2014-07-29"
"1446464","2014-07-29"
"1465584","2014-07-29"
"1468244","2014-07-29"
"1484690","2014-07-29"
"1495024","2014-07-29"
"1497182","2014-07-29"
"1497230","2014-07-29"
"1498660","2014-08-10"
"1503224","2014-07-29"
"1507960","2014-07-29"
"1510532","2014-07-29"
"1513210","2014-07-29"
"1515312","2014-07-29"
"1517138","2014-07-29"
"1536262","2014-07-29"
"1542710","2014-07-29"
"1551140","2014-07-29"
"1574560","2014-07-29"
"1587196","2014-07-29"
"1587850","2014-07-29"
"1589968","2014-07-29"
"1591604","2014-07-29"
"1592632","2014-07-29"
"1597888","2014-07-29"
"1598602","2014-07-29"
"1598620","2014-07-29"
"1599108","2014-07-29"
"1608842","2014-07-29"
"1615236","2014-07-29"
"1616930","2014-07-29"
"1619898","2014-07-29"
"1623114","2014-07-29"
"1642062","2014-07-29"
"1649780","2014-07-29"
"1651206","2014-07-29"
"1658164","2014-07-29"
"1658712","2014-07-29"
"1658846","2014-07-29"
"1661814","2014-07-29"
"1666074","2014-07-29"
"1666632","2014-07-29"
"1668820","2014-07-29"
"1677830","2014-07-29"
"1678002","2014-07-29"
"1683046","2014-07-29"
"1684804","2014-07-29"
"1691952","2014-07-29"
"1696224","2014-07-29"
"1701014","2014-07-29"
"1704196","2014-07-29"
"1712352","2014-07-29"
"1716048","2014-07-29"
"1737148","2014-07-29"
"1738368","2014-07-29"
"1741068","2014-07-29"
"1741804","2014-07-29"
"1751150","2014-07-29"
"1751194","2014-07-29"
"1751234","2014-07-29"
"1757078","2014-07-29"
"1757232","2014-07-29"
"1757452","2014-07-29"
"1760548","2014-07-29"
"1763640","2014-07-29"
"1763974","2014-07-29"
"1764232","2014-07-29"
"1764278","2014-07-29"
"1764474","2014-07-29"
"1764634","2014-07-29"
"1770902","2014-07-29"
"1772708","2014-07-29"
"1774134","2014-07-29"
"1777070","2014-07-29"
"1777268","2014-07-29"
"1777956","2014-07-29"
"1778122","2014-07-29"
"1778178","2014-07-29"
"1779026","2014-07-29"
"1785974","2014-07-29"
"1786490","2014-07-29"
"1786990","2014-07-29"
"1787146","2014-07-29"
"1787248","2014-07-29"
"1788888","2014-07-29"
"1790280","2014-07-29"
"1793074","2014-07-29"
"1793520","2014-07-29"
"1796316","2014-07-29"
"1798296","2014-07-29"
"1798420","2014-07-29"
"1799498","2014-07-29"
"1799594","2014-07-29"
"1800998","2014-07-29"
"1801082","2014-07-29"
"1801268","2014-07-29"
"1801570","2014-07-29"
"1802072","2014-07-29"
"1802678","2014-08-06"
"1803338","2014-07-29"
"1804688","2014-07-29"
"1805776","2014-07-29"
"1806178","2014-07-29"
"1806308","2014-07-29"
"1806334","2014-07-29"
"1806988","2014-07-29"
"1807020","2014-07-29"
"1807058","2014-07-29"
"1807662","2014-07-29"
"1807692","2014-07-29"
"1807776","2014-07-29"
"1808864","2014-07-29"
"1809206","2014-07-29"
"1810350","2014-07-29"
"1810386","2014-07-29"
"1810472","2014-07-29"
"1810480","2014-07-29"
"1810710","2014-07-29"
"1811828","2014-07-29"
"1813186","2014-07-29"
"1813762","2014-07-29"
"1814418","2014-07-29"
"1814520","2014-07-29"
"1814706","2014-07-29"
"1815602","2014-07-29"
"1816726","2014-07-29"
"1816916","2014-07-29"
"1817044","2014-07-29"
"1818560","2014-07-29"
"1818568","2014-07-29"
"1818570","2014-07-29"
"1821312","2014-07-29"
"1821548","2014-07-29"
"1821612","2014-07-29"
"1822150","2014-07-29"
"1822458","2014-07-29"
"1824244","2014-07-29"
"1824484","2014-07-29"
"1825896","2014-07-29"
"1826604","2014-07-29"
"1827424","2014-07-29"
"1828414","2014-07-29"
"1829170","2014-07-29"
"1829338","2014-07-29"
"1829822","2014-07-29"
"1830822","2014-07-29"
"1830934","2014-07-29"
"1831774","2014-07-29"
"1832000","2014-07-29"
"1832872","2014-07-29"
"1832932","2014-07-29"
"1833022","2014-07-29"
"1833296","2014-07-29"
"1833334","2014-07-29"
"1833678","2014-07-29"
"1834002","2014-07-29"
"1834184","2014-07-29"
"1836008","2014-07-29"
"1838114","2014-07-29"
"1838892","2014-07-29"
"1843650","2014-07-29"
"1843788","2014-07-29"
"1844146","2014-07-29"
"1844956","2014-07-29"
"1845372","2014-07-29"
"1845402","2014-07-29"
"1846172","2014-07-29"
"1847002","2014-07-29"
"1847314","2014-07-29"
"1847582","2014-07-29"
"1848266","2014-07-29"
"1848836","2014-07-29"
"1848880","2014-07-29"
"1848964","2014-07-29"
"1849480","2014-07-29"
"1849700","2014-07-29"
"1850158","2014-07-29"
"1850734","2014-07-29"
"1851098","2014-07-29"
"1851880","2014-07-29"
"1853096","2014-07-29"
"1853536","2014-07-29"
"1853636","2014-07-29"
"1854510","2014-07-29"
"1854752","2014-07-29"
"1855120","2014-07-29"
"1856556","2014-07-29"
"1857074","2014-07-29"
"1857376","2014-07-29"
"1858616","2014-07-29"
"1859684","2014-07-29"
"1860434","2014-07-29"
"1861814","2014-07-29"
"1862300","2014-07-29"
"1862398","2014-07-29"
"1862758","2014-07-29"
"1863816","2014-07-29"
"1865206","2014-07-29"
"1867090","2014-07-29"
"1867856","2014-07-29"
"1868004","2014-07-29"
"1869562","2014-07-29"
"1869566","2014-07-29"
"1871696","2014-07-29"
"1871762","2014-07-29"
"1871772","2014-07-29"
"1872296","2014-07-29"
"1872540","2014-07-29"
"1874498","2014-07-29"
"1874500","2014-07-29"
"1874530","2014-07-29"
"1874564","2014-07-29"
"1874640","2014-07-29"
"1874936","2014-07-29"
"1876992","2014-07-29"
"1877632","2014-07-29"
"1879120","2014-07-29"
"1879774","2014-07-29"
"1879898","2014-07-29"
"1880424","2014-07-29"
"1882482","2014-07-29"
"1883526","2014-07-29"
"1884182","2014-07-29"
"1884762","2014-07-29"
"1885510","2014-07-29"
"1885542","2014-07-29"
"1885644","2014-07-29"
"1885868","2014-07-29"
"1886566","2014-07-29"
"1887046","2014-07-29"
"1887904","2014-07-29"
"1888424","2014-07-29"
"1888702","2014-07-29"
"1889854","2014-07-29"
"1890784","2014-07-29"
"1891980","2014-07-29"
"1892016","2014-07-29"
"1892182","2014-07-29"
"1892320","2014-07-29"
"1892462","2014-07-29"
"1892728","2014-07-29"
"1894644","2014-07-29"
"1894692","2014-07-29"
"1895160","2014-07-29"
"1896268","2014-07-29"
"1896556","2014-07-29"
"1899440","2014-07-29"
"1899682","2014-07-29"
"1900962","2014-07-29"
"1901100","2014-07-29"
"1901670","2014-07-29"
"1904214","2014-07-29"
"1905362","2014-07-29"
"1906794","2014-07-29"
"1907418","2014-07-29"
"1908440","2014-07-29"
"1909144","2014-07-29"
"1910318","2014-07-29"
"1910658","2014-07-29"
"1913084","2014-07-29"
"1913086","2014-07-29"
"1913328","2014-07-29"
"1913856","2014-07-29"
"1914040","2014-07-29"
"1914070","2014-07-29"
"1914180","2014-07-29"
"1914966","2014-07-29"
"1915752","2014-07-29"
"1916936","2014-07-29"
"1919928","2014-07-29"
"1920862","2014-07-29"
"1921540","2014-07-29"
"1924420","2014-07-29"
"1924990","2014-07-29"
"1926958","2014-07-29"
"1927584","2014-07-29"
"1927608","2014-07-29"
"1929656","2014-07-29"
"1930020","2014-07-29"
"1930274","2014-07-29"
"1931900","2014-07-29"
"1932652","2014-07-29"
"1932948","2014-07-29"
"1933190","2014-07-29"
"1933290","2014-07-29"
"1934712","2014-07-29"
"1934788","2014-07-29"
"1934802","2014-07-29"
"1934964","2014-07-29"
"1936216","2014-07-29"
"1936392","2014-07-29"
"1937484","2014-07-29"
"1938044","2014-07-29"
"1938430","2014-07-29"
"1938892","2014-07-29"
"1938898","2014-07-29"
"1938926","2014-07-29"
"1938948","2014-07-29"
"1939132","2014-07-29"
"1939660","2014-07-29"
"1940208","2014-07-29"
"1940592","2014-07-29"
"1942490","2014-07-29"
"1943494","2014-07-29"
"1943776","2014-07-29"
"1943846","2014-07-29"
"1944344","2014-07-29"
"1945418","2014-07-29"
"1947432","2014-07-29"
"1947880","2014-07-29"
"1949266","2014-07-29"
"1950098","2014-07-29"
"1950632","2014-07-29"
"1950634","2014-07-29"
"1951068","2014-07-29"
"1953408","2014-07-29"
"1953528","2014-07-29"
"1954180","2014-07-29"
"1956896","2014-07-29"
"1956912","2014-07-29"
"1957346","2014-07-29"
"1957742","2014-07-29"
"1959122","2014-07-29"
"1961938","2014-07-29"
"1963022","2014-07-29"
"1963394","2014-07-29"
"1963886","2014-07-29"
"1965164","2014-07-29"
"1965208","2014-07-29"
"1965650","2014-07-29"
"1965836","2014-07-29"
"1965856","2014-07-29"
"1966298","2014-07-29"
"1966614","2014-07-29"
"1966704","2014-07-29"
"1967420","2014-07-29"
"1968970","2014-07-29"
"1969406","2014-07-29"
"1969698","2014-07-29"
"1969728","2014-07-29"
"1969800","2014-07-29"
"1970110","2014-07-29"
"1971158","2014-07-29"
"1971198","2014-07-29"
"1972116","2014-07-29"
"1972514","2014-07-29"
"1973456","2014-07-29"
"1975486","2014-07-29"
"1975962","2014-07-29"
"1976172","2014-07-29"
"1977570","2014-07-29"
"1978910","2014-07-29"
"1978938","2014-07-29"
"1979094","2014-07-29"
"1980822","2014-07-29"
"1981112","2014-07-29"
"1981368","2014-07-29"
"1983164","2014-07-29"
"1983548","2014-07-29"
"1986000","2014-07-29"
"1986090","2014-07-29"
"1986888","2014-07-29"
"1987236","2014-07-29"
"1987298","2014-07-29"
"1987694","2014-07-29"
"1987716","2014-07-29"
"1987778","2014-07-29"
"1987824","2014-07-29"
"1988426","2014-07-29"
"1988508","2014-07-29"
"1988612","2014-07-29"
"1989230","2014-07-29"
"1991684","2014-07-29"
"1995620","2014-07-29"
"1996238","2014-07-29"
"1996714","2014-07-29"
"1997716","2014-07-29"
"1998140","2014-07-29"
"1998576","2014-07-29"
"1998582","2014-07-29"
"1998658","2014-07-29"
"1999312","2014-07-29"
"2001206","2014-07-29"
"2002134","2014-07-29"
"2002152","2014-07-29"
"2002336","2014-07-29"
"2002506","2014-07-29"
"2003440","2014-07-29"
"2003892","2014-07-29"
"2004224","2014-07-29"
"2004244","2014-07-29"
"2004350","2014-07-29"
"2004408","2014-07-29"
"2004650","2014-07-29"
"2004780","2014-07-29"
"2005644","2014-07-29"
"2006606","2014-07-29"
"2011018","2014-07-29"
"2011128","2014-07-29"
"2012502","2014-07-29"
"2012662","2014-07-29"
"2012682","2014-07-29"
"2013837","2014-07-29"
"2013939","2014-07-29"
"2014617","2014-07-29"
"2014821","2014-07-29"
"2015313","2014-07-29"
"2015689","2014-07-29"
"2015999","2014-07-29"
"2016629","2014-07-29"
"2017019","2014-07-29"
"2017217","2014-07-29"
"2018315","2014-07-29"
"2018319","2014-07-29"
"2018409","2014-07-29"
"2018411","2014-07-29"
"2019071","2014-07-29"
"2019469","2014-07-29"
"2019651","2014-07-29"
"2020209","2014-07-29"
"2020353","2014-07-29"
"2020395","2014-07-29"
"2020979","2014-07-29"
"2021491","2014-07-29"
"2022769","2014-07-29"
"2022927","2014-07-29"
"2023125","2014-07-29"
"2023563","2014-07-29"
"2025325","2014-07-29"
"2026339","2014-07-29"
"2026431","2014-07-29"
"2027181","2014-07-29"
"2028025","2014-07-29"
"2028403","2014-07-29"
"2028415","2014-07-29"
"2029075","2014-07-29"
"2029509","2014-07-29"
"2029537","2014-07-29"
"2029569","2014-07-29"
"2029711","2014-07-29"
"2030293","2014-07-29"
"2030457","2014-07-29"
"2031115","2014-07-29"
"2031341","2014-07-29"
"2031353","2014-07-29"
"2031487","2014-07-29"
"2031519","2014-07-29"
"2031529","2014-07-29"
"2031647","2014-07-29"
"2031725","2014-07-29"
"2032309","2014-07-29"
"2032453","2014-07-29"
"2032553","2014-07-29"
"2033383","2014-07-29"
"2034563","2014-07-29"
"2035083","2014-07-29"
"2035721","2014-07-29"
"2036253","2014-07-29"
"2037569","2014-07-29"
"2039163","2014-07-29"
"2039277","2014-07-29"
"2040571","2014-07-29"
"2041333","2014-07-29"
"2041493","2014-07-29"
"2042545","2014-07-29"
"2043403","2014-07-29"
"2043527","2014-07-29"
"2043781","2014-07-29"
"2044841","2014-07-29"
"2044865","2014-07-29"
"2046097","2014-07-29"
"2046367","2014-07-29"
"2046541","2014-07-29"
"2048223","2014-07-29"
"2048309","2014-07-29"
"2049159","2014-07-29"
"2049209","2014-07-29"
"2049569","2014-07-29"
"2050097","2014-07-29"
"2050835","2014-07-29"
"2050843","2014-07-29"
"2050919","2014-07-29"
"2051097","2014-07-29"
"2051889","2014-07-29"
"2051923","2014-07-29"
"2052389","2014-07-29"
"2052787","2014-07-29"
"2052923","2014-07-29"
"2053461","2014-07-29"
"2053489","2014-07-29"
"2053879","2014-07-29"
"2055843","2014-07-29"
"2056083","2014-07-29"
"2056173","2014-07-29"
"2056445","2014-07-29"
"2056513","2014-07-29"
"2056607","2014-07-29"
"2056721","2014-07-29"
"2056895","2014-07-29"
"2056943","2014-07-29"
"2057155","2014-07-29"
"2057207","2014-07-29"
"2057259","2014-07-29"
"2057427","2014-07-29"
"2057607","2014-07-29"
"2057725","2014-07-29"
"2058845","2014-07-29"
"2059245","2014-07-29"
"2060003","2014-07-29"
"2060705","2014-07-29"
"2061107","2014-07-29"
"2062439","2014-07-29"
"2064611","2014-07-29"
"2065193","2014-07-29"
"2066535","2014-07-29"
"2067079","2014-07-29"
"2067551","2014-07-29"
"2067809","2014-07-29"
"2067881","2014-07-29"
"2068053","2014-07-29"
"2068329","2014-07-29"
"2068593","2014-07-29"
"2069261","2014-07-29"
"2069373","2014-07-29"
"2071145","2014-07-29"
"2071655","2014-07-29"
"2071957","2014-07-29"
"2074037","2014-07-29"
"2074509","2014-07-29"
"2074547","2014-07-29"
"2075095","2014-07-29"
"2075185","2014-07-29"
"2076283","2014-07-29"
"2076445","2014-07-29"
"2077473","2014-07-29"
"2078285","2014-07-29"
"2078387","2014-07-29"
"2078855","2014-07-29"
"2079761","2014-07-29"
"2080841","2014-07-29"
"2081945","2014-07-29"
"2083387","2014-07-29"
"2083811","2014-07-29"
"2084057","2014-07-29"
"2084125","2014-07-29"
"2084463","2014-07-29"
"2084513","2014-07-29"
"2086479","2014-07-29"
"2089195","2014-07-29"
"2090353","2014-07-29"
"2090509","2014-07-29"
"2090541","2014-07-29"
"2090947","2014-07-29"
"2091411","2014-07-29"
"2094241","2014-07-29"
"2094797","2014-07-29"
"2095115","2014-07-29"
"2095125","2014-07-29"
"2095139","2014-07-29"
"2095219","2014-07-29"
"2095225","2014-07-29"
"2095283","2014-07-29"
"2095489","2014-07-29"
"2095587","2014-07-29"
"2095693","2014-07-29"
"2095961","2014-07-29"
"2095971","2014-07-29"
"2096899","2014-07-29"
"2097189","2014-07-29"
"2097537","2014-07-29"
"2097903","2014-07-29"
"2098375","2014-07-29"
"2099363","2014-07-29"
"2099417","2014-07-29"
"2099467","2014-07-29"
"2099541","2014-07-29"
"2099671","2014-07-29"
"2099679","2014-07-29"
"2100073","2014-07-29"
"2100351","2014-07-29"
"2101427","2014-07-29"
"2102125","2014-07-29"
"2102489","2014-07-29"
"2102539","2014-07-29"
"2102777","2014-07-29"
"2103145","2014-07-29"
"2103155","2014-07-29"
"2105557","2014-07-29"
"2107137","2014-07-29"
"2107309","2014-07-29"
"2107531","2014-07-29"
"2108573","2014-07-29"
"2108623","2014-07-29"
"2108691","2014-07-29"
"2108829","2014-07-29"
"2109287","2014-07-29"
"2109433","2014-07-29"
"2109553","2014-07-29"
"2110501","2014-07-29"
"2110643","2014-07-29"
"2110779","2014-07-29"
"2111163","2014-07-29"
"2112239","2014-07-29"
"2113547","2014-07-29"
"2113567","2014-07-29"
"2114699","2014-07-29"
"2116341","2014-07-29"
"2116551","2014-07-29"
"2117687","2014-07-29"
"2119813","2014-07-29"
"2120235","2014-07-29"
"2120457","2014-07-29"
"2120807","2014-07-29"
"2120839","2014-07-29"
"2121299","2014-07-29"
"2121775","2014-07-29"
"2121849","2014-07-29"
"2122761","2014-07-29"
"2124377","2014-07-29"
"2124599","2014-07-29"
"2124619","2014-07-29"
"2125045","2014-07-29"
"2125717","2014-07-29"
"2127725","2014-07-29"
"2127941","2014-07-29"
"2129197","2014-07-29"
"2130811","2014-07-29"
"2133439","2014-07-29"
"2133469","2014-07-29"
"2134887","2014-07-29"
"2135777","2014-07-29"
"2135787","2014-07-29"
"2135975","2014-07-29"
"2136507","2014-07-29"
"2138665","2014-07-29"
"2138667","2014-07-29"
"2138867","2014-07-29"
"2139921","2014-07-29"
"2140505","2014-07-29"
"2141055","2014-07-29"
"2141539","2014-07-29"
"2142549","2014-07-29"
"2142987","2014-07-29"
"2143263","2014-07-29"
"2143519","2014-07-29"
"2143797","2014-07-29"
"2144795","2014-07-29"
"2144919","2014-07-29"
"2145041","2014-07-29"
"2147153","2014-07-29"
"2147291","2014-07-29"
"2147451","2014-07-29"
"2147669","2014-07-29"
"2148255","2014-08-06"
"2148795","2014-07-29"
"2148797","2014-07-29"
"2149107","2014-07-29"
"2150083","2014-07-29"
"2150621","2014-07-29"
"2150623","2014-07-29"
"2150833","2014-07-29"
"2152073","2014-07-29"
"2154701","2014-07-29"
"2155387","2014-07-29"
"2155635","2014-07-29"
"2155701","2014-07-29"
"2156265","2014-07-29"
"2156351","2014-07-29"
"2156649","2014-07-29"
"2157153","2014-07-29"
"2157777","2014-07-29"
"2158259","2014-07-29"
"2158339","2014-07-29"
"2159459","2014-07-29"
"2159915","2014-07-29"
"2159965","2014-07-29"
"2160345","2014-07-29"
"2160735","2014-07-29"
"2160811","2014-07-29"
"2161067","2014-07-29"
"2161397","2014-07-29"
"2161727","2014-07-29"
"2161845","2014-08-05"
"2162005","2014-08-08"
"2162271","2014-07-29"
"2162401","2014-07-29"
"2163035","2014-07-29"
"2163349","2014-07-29"
"2166703","2014-07-29"
"2167267","2014-07-29"
"2167517","2014-07-29"
"2168333","2014-07-29"
"2169447","2014-07-29"
"2170023","2014-07-29"
"2170085","2014-07-29"
"2170117","2014-07-29"
"2170411","2014-07-29"
"2171269","2014-07-29"
"2171359","2014-07-29"
"2171683","2014-07-29"
"2171737","2014-07-29"
"2171757","2014-07-29"
"2172235","2014-07-29"
"2172241","2014-07-29"
"2172717","2014-07-29"
"2172941","2014-07-29"
"2173719","2014-07-29"
"2174509","2014-07-29"
"2175017","2014-07-29"
"2175587","2014-07-29"
"2175769","2014-07-29"
"2175823","2014-07-29"
"2176105","2014-07-29"
"2177289","2014-07-29"
"2177739","2014-07-29"
"2178795","2014-07-29"
"2179081","2014-07-29"
"2180539","2014-07-29"
"2181101","2014-07-29"
"2181527","2014-07-29"
"2183113","2014-07-29"
"2184315","2014-07-29"
"2184951","2014-07-29"
"2185831","2014-07-29"
"2186115","2014-07-29"
"2186557","2014-07-29"
"2187097","2014-07-29"
"2187335","2014-07-29"
"2187717","2014-07-29"
"2187991","2014-07-29"
"2188031","2014-07-29"
"2188097","2014-07-29"
"2188595","2014-07-29"
"2188661","2014-07-29"
"2190313","2014-07-29"
"2191285","2014-07-29"
"2191543","2014-07-29"
"2191721","2014-07-29"
"2191785","2014-07-29"
"2192649","2014-07-29"
"2193197","2014-07-29"
"2194111","2014-07-29"
"2194273","2014-07-29"
"2194703","2014-07-29"
"2194823","2014-07-29"
"2195745","2014-07-31"
"2195781","2014-07-29"
"2195815","2014-07-29"
"2196557","2014-07-29"
"2198377","2014-07-29"
"2200333","2014-07-29"
"2200821","2014-07-29"
"2201751","2014-07-29"
"2202537","2014-07-29"
"2203065","2014-07-29"
"2203411","2014-07-29"
"2204307","2014-07-29"
"2205295","2014-07-29"
"2206263","2014-07-29"
"2206417","2014-07-29"
"2206909","2014-07-29"
"2207021","2014-07-29"
"2207219","2014-07-29"
"2207647","2014-07-29"
"2207777","2014-07-29"
"2207907","2014-07-29"
"2208115","2014-07-29"
"2209015","2014-07-29"
"2209025","2014-07-29"
"2209461","2014-07-29"
"2209583","2014-07-29"
"2210197","2014-07-29"
"2211553","2014-07-29"
"2211723","2014-07-29"
"2212947","2014-07-29"
"2213357","2014-07-29"
"2213451","2014-07-29"
"2214209","2014-07-29"
"2216695","2014-07-29"
"2216961","2014-07-29"
"2217087","2014-07-29"
"2217371","2014-07-29"
"2217669","2014-07-29"
"2217943","2014-08-01"
"2217975","2014-07-29"
"2218039","2014-07-29"
"2218117","2014-07-29"
"2218313","2014-07-29"
"2218955","2014-07-29"
"2219795","2014-07-29"
"2221041","2014-07-29"
"2221535","2014-07-29"
"2221789","2014-07-29"
"2223143","2014-07-29"
"2223361","2014-07-29"
"2223611","2014-07-29"
"2224553","2014-07-29"
"2224691","2014-07-29"
"2225353","2014-08-01"
"2225371","2014-07-29"
"2225431","2014-07-29"
"2225955","2014-07-29"
"2226027","2014-07-29"
"2226063","2014-07-29"
"2226267","2014-08-10"
"2226613","2014-07-29"
"2226761","2014-08-06"
"2227355","2014-07-29"
"2227363","2014-07-29"
"2227441","2014-07-29"
"2227465","2014-07-29"
"2227513","2014-07-29"
"2228215","2014-07-29"
"2228341","2014-07-29"
"2228721","2014-07-29"
"2229011","2014-07-29"
"2229167","2014-07-29"
"2229781","2014-07-29"
"2230055","2014-07-29"
"2231413","2014-07-29"
"2231595","2014-07-29"
"2233787","2014-07-29"
"2233887","2014-07-29"
"2234439","2014-07-29"
"2235425","2014-08-10"
"2237681","2014-07-29"
"2238077","2014-07-29"
"2238087","2014-07-29"
"2238945","2014-07-29"
"2239241","2014-07-31"
"2239299","2014-07-29"
"2239413","2014-08-08"
"2239833","2014-07-29"
"2241229","2014-07-29"
"2241235","2014-07-29"
"2241291","2014-07-29"
"2241655","2014-07-29"
"2244185","2014-07-29"
"2244757","2014-07-29"
"2245249","2014-07-29"
"2245783","2014-07-29"
"2247281","2014-07-29"
"2248985","2014-07-29"
"2250325","2014-07-29"
"2252967","2014-07-29"
"2253977","2014-07-29"
"2254203","2014-07-29"
"2254777","2014-07-29"
"2254903","2014-07-29"
"2256317","2014-07-29"
"2256355","2014-07-29"
"2256373","2014-07-29"
"2256679","2014-08-02"
"2257229","2014-07-29"
"2257427","2014-07-29"
"2258831","2014-07-29"
"2259167","2014-07-29"
"2259275","2014-07-29"
"2259337","2014-07-29"
"2259823","2014-07-29"
"2261131","2014-07-29"
"2262483","2014-07-29"
"2262975","2014-07-29"
"2263255","2014-07-29"
"2263273","2014-07-29"
"2264179","2014-07-29"
"2265913","2014-07-29"
"2266501","2014-07-29"
"2267753","2014-07-29"
"2268761","2014-08-08"
"2268975","2014-07-29"
"2269025","2014-08-07"
"2271967","2014-07-29"
"2272161","2014-07-29"
"2272279","2014-07-29"
"2272713","2014-07-29"
"2272987","2014-07-29"
"2274175","2014-07-29"
"2274791","2014-07-29"
"2276219","2014-07-29"
"2276571","2014-07-29"
"2277705","2014-07-29"
"2277981","2014-07-29"
"2278541","2014-07-29"
"2279339","2014-07-29"
"2279363","2014-07-29"
"2279395","2014-07-29"
"2280501","2014-07-29"
"2281635","2014-07-29"
"2281905","2014-07-29"
"2285349","2014-07-29"
"2286357","2014-07-29"
"2287193","2014-07-29"
"2287727","2014-07-29"
"2289095","2014-07-29"
"2289999","2014-08-07"
"2290849","2014-07-29"
"2293063","2014-07-29"
"2293163","2014-07-29"
"2294177","2014-07-29"
"2294439","2014-08-01"
"2296767","2014-07-29"
"2296859","2014-07-29"
"2298319","2014-07-29"
"2298485","2014-07-29"
"2298993","2014-07-29"
"2299269","2014-07-29"
"2301875","2014-07-29"
"2302617","2014-07-29"
"2304651","2014-07-29"
"2305023","2014-07-29"
"2306071","2014-08-04"
"2308821","2014-08-08"
"2309247","2014-07-31"
"2309575","2014-08-06"
"2312641","2014-08-10"
"2313053","2014-08-04"
"2313615","2014-08-10"
"2313989","2014-08-06"
"2314271","2014-08-04"
"2314765","2014-08-04"
"2314855","2014-08-04"
"2314859","2014-08-05"
"2314861","2014-08-04"
"2314865","2014-08-04"
"2314867","2014-08-04"
"2314869","2014-08-04"
"2314871","2014-08-04"
"2314873","2014-08-05"
"2314875","2014-08-04"
"2314877","2014-08-04"
"2314881","2014-08-04"
"2314883","2014-08-05"
"2314885","2014-08-05"
"2314887","2014-08-04"
"2315237","2014-08-10"
"2315613","2014-08-07"
"2316459","2014-08-08"
