"component","outstanding_change_records"
"entity system","3"
"forms system","2"
"markup","1"
"theme system","1"
"base system","1"
"documentation","1"
"plugin system","1"
"extension system","1"
"other","1"
"comment.module","1"
