"nid","fixed_date"
"8","2009-01-08"
"11077","2008-11-21"
"26966","2010-01-07"
"29706","2008-04-01"
"46149","2010-01-14"
"52015","2008-09-03"
"66264","2010-03-28"
"78549","2009-09-15"
"86299","2010-03-10"
"91663","2010-04-10"
"92877","2009-08-18"
"93497","2009-08-06"
"105639","2009-08-31"
"108818","2009-11-19"
"136078","2008-01-28"
"139117","2010-08-02"
"139970","2008-10-16"
"141727","2008-09-06"
"141996","2008-12-09"
"142995","2008-10-10"
"151902","2008-06-09"
"175841","2008-04-16"
"187398","2010-01-08"
"191914","2007-12-27"
"196042","2008-09-05"
"197775","2009-10-04"
"199870","2008-10-19"
"211439","2009-08-08"
"212918","2008-02-21"
"214513","2008-02-06"
"215080","2009-10-16"
"215858","2008-02-10"
"216059","2008-02-12"
"216072","2008-05-06"
"216515","2008-08-17"
"216813","2008-02-23"
"217912","2009-08-05"
"218054","2008-02-08"
"218319","2008-02-06"
"218436","2008-02-06"
"218471","2008-02-10"
"219334","2008-02-10"
"220260","2008-02-12"
"221072","2008-02-14"
"221384","2008-02-18"
"225450","2008-08-21"
"225535","2010-06-25"
"226728","2010-02-14"
"227486","2009-01-25"
"228761","2008-09-17"
"228818","2010-02-25"
"228860","2010-05-16"
"229129","2008-09-27"
"237577","2008-04-01"
"238760","2009-01-06"
"239455","2008-05-15"
"239676","2009-09-05"
"240387","2008-05-10"
"241013","2010-04-10"
"241207","2008-07-21"
"242873","2008-10-14"
"243129","2009-07-09"
"243967","2008-05-16"
"246261","2008-08-30"
"248436","2008-05-07"
"248598","2010-03-21"
"249154","2008-06-24"
"249200","2008-05-21"
"249546","2008-04-23"
"249629","2008-04-23"
"249638","2008-04-22"
"250918","2008-06-02"
"251235","2009-09-13"
"251245","2009-05-08"
"251473","2008-05-06"
"251631","2008-04-28"
"252365","2008-04-30"
"252430","2008-08-16"
"253501","2009-09-26"
"253506","2008-07-05"
"256579","2008-05-13"
"257196","2009-09-05"
"257910","2008-11-03"
"257979","2008-05-13"
"258200","2008-07-03"
"258397","2010-03-17"
"259623","2008-10-09"
"259988","2008-06-28"
"260369","2008-05-26"
"260484","2008-08-15"
"260486","2008-06-26"
"260492","2008-05-22"
"260494","2008-06-03"
"260497","2008-06-26"
"260499","2008-05-22"
"260501","2008-06-02"
"260507","2008-08-26"
"260778","2008-06-24"
"261859","2008-09-05"
"265563","2008-06-09"
"266178","2008-06-10"
"266246","2010-06-26"
"266465","2008-06-05"
"266539","2008-06-06"
"267249","2008-06-26"
"267333","2009-05-06"
"267813","2008-06-08"
"268063","2008-08-14"
"268449","2008-06-09"
"268706","2008-08-30"
"272883","2008-09-02"
"273743","2008-10-06"
"274589","2008-06-25"
"274994","2008-06-26"
"275092","2008-09-15"
"275815","2009-09-19"
"276200","2008-08-05"
"276276","2008-09-03"
"276280","2009-01-05"
"276283","2009-03-17"
"276400","2009-08-18"
"276430","2008-08-16"
"276509","2010-02-23"
"276517","2009-05-08"
"276554","2009-01-22"
"276588","2008-09-17"
"276597","2009-06-28"
"277586","2008-07-02"
"278675","2009-01-21"
"280605","2009-12-03"
"280625","2008-11-22"
"280628","2008-08-05"
"280629","2008-07-11"
"280631","2008-07-19"
"283246","2008-12-18"
"285165","2008-10-14"
"286035","2008-09-09"
"286351","2008-07-24"
"286378","2008-07-24"
"287695","2008-08-02"
"288039","2008-12-12"
"289796","2008-08-03"
"290316","2008-08-13"
"290869","2008-08-13"
"293496","2009-09-11"
"293500","2008-08-11"
"293506","2008-11-22"
"293511","2009-05-17"
"293514","2008-11-20"
"295152","2008-08-28"
"295255","2010-10-22"
"295506","2008-08-16"
"295564","2008-08-29"
"295719","2008-09-17"
"295983","2009-07-21"
"296001","2009-05-26"
"296011","2009-08-16"
"296297","2008-09-17"
"296305","2008-08-28"
"296306","2008-10-11"
"296310","2008-09-07"
"296312","2009-02-28"
"296442","2008-10-13"
"296482","2009-03-25"
"296486","2008-09-19"
"296487","2008-09-19"
"296493","2009-10-08"
"296495","2008-11-19"
"296691","2008-08-26"
"296910","2008-09-24"
"297729","2008-11-17"
"297860","2009-12-18"
"297869","2008-08-22"
"297952","2009-01-18"
"298329","2008-09-11"
"298391","2008-09-27"
"298444","2009-03-01"
"298722","2009-02-09"
"298812","2008-10-16"
"298974","2009-03-22"
"299137","2009-05-27"
"299176","2009-04-21"
"299292","2009-10-04"
"299308","2010-04-29"
"300569","2008-08-27"
"300993","2009-10-08"
"301049","2009-01-17"
"301902","2009-12-08"
"302268","2009-06-06"
"302308","2008-09-09"
"302327","2010-04-07"
"302396","2008-09-09"
"302399","2008-11-13"
"302518","2008-10-20"
"302638","2010-01-23"
"302763","2008-09-07"
"302936","2008-10-20"
"303419","2009-08-24"
"303889","2008-11-03"
"304163","2009-05-09"
"304330","2009-03-30"
"305236","2008-09-21"
"305740","2008-09-19"
"306027","2009-07-06"
"306224","2008-11-03"
"306316","2009-09-10"
"308186","2008-09-14"
"308233","2008-09-17"
"308277","2009-01-22"
"309951","2008-09-21"
"310212","2009-11-21"
"310447","2008-09-21"
"311946","2008-10-11"
"314147","2008-11-09"
"314194","2008-09-27"
"314244","2008-10-06"
"314283","2009-01-17"
"314349","2010-02-17"
"314532","2008-11-11"
"314870","2008-12-06"
"316139","2008-10-06"
"316186","2008-10-13"
"316189","2009-07-07"
"316225","2008-10-29"
"316318","2009-05-26"
"318636","2009-11-09"
"318687","2008-10-09"
"318892","2008-10-10"
"319341","2008-10-11"
"319346","2008-10-11"
"319356","2008-12-09"
"319465","2008-10-12"
"319466","2008-10-11"
"319467","2008-10-12"
"320173","2008-10-12"
"320510","2008-12-04"
"321100","2008-11-13"
"321161","2008-11-05"
"321828","2009-08-31"
"322759","2010-04-20"
"322843","2008-10-29"
"323372","2008-10-20"
"324313","2008-12-05"
"324880","2008-11-08"
"325169","2010-02-17"
"325877","2010-02-16"
"325895","2008-11-08"
"325908","2009-01-06"
"327480","2008-10-31"
"328719","2008-11-01"
"328781","2008-12-09"
"329080","2008-11-08"
"329140","2008-11-17"
"329227","2008-11-08"
"329646","2008-11-05"
"330633","2008-12-28"
"331708","2008-12-18"
"331730","2008-11-08"
"331737","2008-11-08"
"332145","2008-11-13"
"332266","2009-03-18"
"332333","2009-10-22"
"332413","2010-04-25"
"333171","2009-06-28"
"334283","2009-10-16"
"334303","2009-01-10"
"335035","2010-03-13"
"335655","2009-07-09"
"336043","2008-11-23"
"336596","2008-11-23"
"336746","2008-11-22"
"337796","2009-01-27"
"337993","2009-03-13"
"338239","2008-11-27"
"340283","2009-08-19"
"340500","2008-11-30"
"341872","2008-12-04"
"341910","2009-01-06"
"342294","2008-12-10"
"342366","2008-12-05"
"342493","2008-12-04"
"342503","2009-01-08"
"342693","2008-12-09"
"343502","2009-10-08"
"345376","2009-03-08"
"345632","2008-12-12"
"345866","2009-08-05"
"346156","2009-01-28"
"346494","2010-11-29"
"346529","2008-12-13"
"347959","2010-03-02"
"348111","2008-12-18"
"349469","2010-01-10"
"349671","2009-02-24"
"349823","2009-02-07"
"350275","2009-03-20"
"351249","2009-10-13"
"351805","2009-01-06"
"352956","2009-01-05"
"353069","2009-05-12"
"353632","2009-01-23"
"353823","2009-01-04"
"353883","2009-03-25"
"355225","2009-01-20"
"355278","2009-01-08"
"356074","2009-10-16"
"356908","2009-04-29"
"358437","2010-09-30"
"360854","2009-12-15"
"361648","2010-01-03"
"361699","2009-01-21"
"362021","2010-06-28"
"362024","2009-05-17"
"362764","2009-02-04"
"364407","2009-01-27"
"364564","2009-08-05"
"364620","2009-05-28"
"367013","2009-09-30"
"367214","2009-05-12"
"367567","2009-11-04"
"368674","2009-03-30"
"369011","2009-06-03"
"370172","2009-06-08"
"370240","2009-08-17"
"370846","2009-02-13"
"371363","2009-02-10"
"371458","2009-12-14"
"372400","2009-02-11"
"372650","2009-05-30"
"373514","2009-03-25"
"373613","2009-04-20"
"373897","2010-01-08"
"374068","2009-04-30"
"375352","2009-12-08"
"375907","2009-06-12"
"381004","2009-08-30"
"381688","2009-11-21"
"382464","2009-09-11"
"384992","2010-04-08"
"387218","2009-03-02"
"389040","2009-03-08"
"391264","2009-10-05"
"391330","2009-09-05"
"392494","2009-06-07"
"392686","2009-03-13"
"392696","2009-05-01"
"394182","2009-12-04"
"394268","2009-09-07"
"394488","2009-03-18"
"394566","2009-04-11"
"394582","2009-05-29"
"395340","2010-03-26"
"395472","2009-07-14"
"401214","2009-03-17"
"402264","2009-05-03"
"402280","2009-11-01"
"403526","2009-03-16"
"408482","2010-08-22"
"409750","2009-06-23"
"410636","2010-07-14"
"410638","2009-03-25"
"410674","2009-04-27"
"412518","2009-10-08"
"412730","2009-10-21"
"412782","2010-01-12"
"413852","2009-04-05"
"415044","2009-05-20"
"419348","2009-12-08"
"420358","2010-01-28"
"423690","2009-08-23"
"423886","2009-04-26"
"426056","2010-04-11"
"428296","2009-08-26"
"428744","2009-05-22"
"429132","2009-05-07"
"431776","2010-03-12"
"436940","2009-04-18"
"439798","2009-08-23"
"443154","2009-07-30"
"443514","2010-03-21"
"444344","2009-08-31"
"445130","2010-04-16"
"445214","2009-05-20"
"445794","2009-11-29"
"446666","2009-12-01"
"449142","2010-01-12"
"449198","2009-06-10"
"453254","2009-07-09"
"457532","2009-05-09"
"457744","2009-07-20"
"459786","2009-12-09"
"464878","2009-05-17"
"467296","2010-03-30"
"467474","2009-05-27"
"468944","2009-05-21"
"469768","2009-05-22"
"470242","2009-10-16"
"470632","2009-05-24"
"471018","2009-08-31"
"473240","2009-09-09"
"473366","2009-05-27"
"473876","2009-06-04"
"473878","2009-05-27"
"474156","2009-05-28"
"475596","2009-09-11"
"476928","2009-05-30"
"477018","2009-08-04"
"479200","2009-06-02"
"482920","2009-06-06"
"483468","2009-06-08"
"484090","2009-06-11"
"484170","2009-06-08"
"484820","2010-01-21"
"484860","2009-07-31"
"486090","2009-06-09"
"490074","2009-06-23"
"490432","2009-06-20"
"490636","2009-06-27"
"491490","2009-06-18"
"491666","2009-06-15"
"492186","2010-01-30"
"493314","2009-12-16"
"493520","2009-11-20"
"495876","2009-06-19"
"496500","2009-08-31"
"496516","2009-08-26"
"496922","2009-06-20"
"497118","2009-08-24"
"497504","2009-11-11"
"497948","2009-12-06"
"502190","2009-12-04"
"503550","2010-02-27"
"503782","2010-03-09"
"504076","2010-01-30"
"504256","2009-08-04"
"504564","2010-08-08"
"504678","2009-07-02"
"505014","2010-01-15"
"505812","2009-07-06"
"506458","2009-06-30"
"509392","2009-07-19"
"510126","2009-07-07"
"510460","2009-07-14"
"512104","2009-07-07"
"513414","2009-09-11"
"513876","2010-02-20"
"516138","2009-10-28"
"516150","2009-10-18"
"517318","2009-07-18"
"517542","2009-07-14"
"520106","2011-10-04"
"520368","2009-09-15"
"520486","2009-07-19"
"520736","2010-04-28"
"520740","2009-12-08"
"520760","2010-06-14"
"520764","2009-12-05"
"521474","2009-07-20"
"522786","2010-02-08"
"523358","2009-07-19"
"524728","2010-02-17"
"525058","2010-03-08"
"525540","2009-09-28"
"529756","2009-08-13"
"533584","2009-08-05"
"535680","2009-09-28"
"537056","2009-11-02"
"537458","2009-08-01"
"537654","2009-08-09"
"537750","2010-01-30"
"538164","2010-01-14"
"538916","2010-02-24"
"539220","2010-02-05"
"541346","2009-08-11"
"542180","2010-04-12"
"542206","2009-08-23"
"544400","2009-08-12"
"545306","2009-08-14"
"545356","2009-08-11"
"545952","2009-08-19"
"546390","2009-08-18"
"546956","2009-12-30"
"548806","2009-08-20"
"549432","2009-08-24"
"550124","2010-02-12"
"550718","2009-10-18"
"550742","2009-11-11"
"551070","2009-10-18"
"551080","2009-08-25"
"551524","2009-08-24"
"551658","2010-06-14"
"552066","2009-08-19"
"552436","2009-12-14"
"552520","2009-08-23"
"553304","2010-02-22"
"553306","2010-05-15"
"554088","2009-10-02"
"554106","2010-07-07"
"554164","2009-09-13"
"554946","2009-08-25"
"555446","2009-10-11"
"555946","2009-08-25"
"556438","2009-10-02"
"556832","2009-08-26"
"556872","2010-03-12"
"557220","2009-09-11"
"557318","2009-09-07"
"557684","2009-08-27"
"559266","2010-03-10"
"559294","2009-10-13"
"559306","2009-08-26"
"559486","2009-08-27"
"559554","2010-01-08"
"560502","2009-08-28"
"560608","2010-01-10"
"560646","2009-12-14"
"560738","2009-09-25"
"560740","2009-08-29"
"561452","2009-10-27"
"561726","2009-11-03"
"562624","2009-08-29"
"562816","2009-08-31"
"562908","2009-10-09"
"562932","2009-11-30"
"563148","2009-08-31"
"563390","2010-01-14"
"564394","2009-09-21"
"564528","2009-08-31"
"564686","2010-01-08"
"564852","2009-11-23"
"565290","2009-09-09"
"565480","2009-10-16"
"565792","2009-09-15"
"566094","2009-09-11"
"566494","2010-02-18"
"567064","2009-11-08"
"568224","2009-09-05"
"569084","2009-09-20"
"569190","2010-01-08"
"569206","2010-06-24"
"569224","2009-10-14"
"569814","2009-11-07"
"570218","2009-09-07"
"570900","2009-11-09"
"570930","2009-09-11"
"571604","2009-09-11"
"571934","2009-09-09"
"572618","2009-10-30"
"573300","2010-02-26"
"573680","2009-09-17"
"574796","2009-09-17"
"575280","2010-11-13"
"576180","2010-01-30"
"576932","2009-11-24"
"578212","2010-03-09"
"578676","2010-02-26"
"580868","2010-01-04"
"581286","2009-09-19"
"581414","2009-10-14"
"581764","2009-09-22"
"582378","2009-11-22"
"582754","2009-09-27"
"583730","2009-11-26"
"584370","2009-09-29"
"588766","2010-01-12"
"588882","2010-03-04"
"590590","2009-09-29"
"592286","2009-10-01"
"592800","2010-05-26"
"593522","2009-10-18"
"594036","2009-12-23"
"594908","2010-03-30"
"595972","2010-01-12"
"597336","2009-10-08"
"597484","2009-10-13"
"597508","2009-10-09"
"597832","2009-10-09"
"599122","2010-01-28"
"600554","2009-10-11"
"600974","2009-12-08"
"601584","2009-11-22"
"601642","2010-02-04"
"601806","2009-11-16"
"601966","2010-02-14"
"602520","2009-10-24"
"602586","2009-10-22"
"602710","2009-10-15"
"602752","2009-11-13"
"602998","2010-02-02"
"603236","2009-10-22"
"604304","2010-01-12"
"604828","2009-10-15"
"605374","2010-02-26"
"605442","2009-10-17"
"605880","2009-11-24"
"605892","2009-12-24"
"605926","2010-02-17"
"606114","2009-10-18"
"606130","2009-10-24"
"606134","2009-11-03"
"606526","2010-02-01"
"606608","2010-02-22"
"606640","2009-11-11"
"606646","2009-10-25"
"606888","2009-10-20"
"606934","2009-12-13"
"606994","2009-10-31"
"607652","2009-10-18"
"607802","2009-10-19"
"608036","2010-01-08"
"609100","2009-11-11"
"609118","2010-04-20"
"609140","2010-01-08"
"609146","2009-12-07"
"609622","2010-01-18"
"610022","2010-01-29"
"610072","2010-03-27"
"610204","2009-10-27"
"611752","2010-01-15"
"612920","2009-10-24"
"613278","2009-11-12"
"613754","2009-11-29"
"614030","2010-01-30"
"614410","2009-12-20"
"615130","2009-12-24"
"615282","2009-11-26"
"616240","2010-09-11"
"616616","2009-10-31"
"617532","2009-10-29"
"619230","2009-11-24"
"619512","2009-10-31"
"619584","2010-03-23"
"619862","2010-01-04"
"619904","2009-12-10"
"620618","2010-07-02"
"620634","2009-11-19"
"622482","2009-11-05"
"622550","2009-12-18"
"622922","2009-12-01"
"623292","2010-01-25"
"623314","2009-11-26"
"623992","2009-11-11"
"625744","2009-11-11"
"625942","2009-11-07"
"626024","2009-12-03"
"626354","2009-11-10"
"626866","2009-12-05"
"627626","2010-01-20"
"628094","2009-11-10"
"628932","2009-11-15"
"629794","2010-01-09"
"629902","2010-03-26"
"632172","2010-04-08"
"633678","2010-01-07"
"634240","2009-11-18"
"635212","2010-06-26"
"635552","2010-01-04"
"637702","2009-12-01"
"638070","2010-01-14"
"638416","2009-11-22"
"638430","2009-12-05"
"639428","2009-11-29"
"639434","2009-11-30"
"639460","2010-10-30"
"639466","2009-12-14"
"639696","2010-01-17"
"640064","2009-11-24"
"640880","2010-04-09"
"641152","2009-12-07"
"641670","2010-02-24"
"642010","2009-12-02"
"645584","2009-11-28"
"645926","2010-01-13"
"646762","2009-12-06"
"647084","2010-02-25"
"647228","2010-10-25"
"647250","2009-12-02"
"649224","2010-01-13"
"649662","2010-06-08"
"649692","2009-12-05"
"650758","2009-12-04"
"650832","2009-12-14"
"651240","2010-11-30"
"651410","2010-01-03"
"651712","2009-12-08"
"652122","2010-08-20"
"652246","2010-02-07"
"652372","2010-04-18"
"652420","2009-12-25"
"652834","2009-12-11"
"653580","2010-09-04"
"653926","2009-12-13"
"653956","2009-12-08"
"654014","2009-12-08"
"654560","2009-12-09"
"654662","2009-12-25"
"654726","2010-04-28"
"654930","2009-12-13"
"655408","2009-12-21"
"655416","2010-07-31"
"656190","2009-12-23"
"656300","2009-12-10"
"656470","2010-01-03"
"656782","2010-03-26"
"657668","2009-12-14"
"657972","2010-03-28"
"658118","2010-01-18"
"658314","2009-12-27"
"659570","2009-12-30"
"659578","2009-12-20"
"659962","2010-01-31"
"660302","2010-06-28"
"661420","2010-07-30"
"661494","2009-12-31"
"662322","2010-01-08"
"664450","2009-12-23"
"666266","2009-12-24"
"667052","2009-12-24"
"667074","2010-01-06"
"667264","2009-12-31"
"667410","2009-12-25"
"667816","2010-01-29"
"668080","2010-01-07"
"668104","2010-02-10"
"668386","2010-02-07"
"668464","2010-01-14"
"669060","2009-12-28"
"669062","2009-12-28"
"669754","2010-01-03"
"669794","2010-04-06"
"671520","2010-03-03"
"672794","2010-01-12"
"674784","2010-02-23"
"676046","2010-01-06"
"677766","2010-03-07"
"678628","2010-01-12"
"679074","2010-01-08"
"679530","2010-03-06"
"679830","2010-01-11"
"680256","2010-01-10"
"680380","2010-01-10"
"680422","2010-03-17"
"680548","2010-01-10"
"680850","2010-03-06"
"682552","2010-04-17"
"683028","2010-01-13"
"683128","2010-01-13"
"683590","2010-01-14"
"683674","2010-01-13"
"683988","2010-04-27"
"684084","2010-01-14"
"684138","2010-01-14"
"684202","2010-01-30"
"684602","2010-03-10"
"684774","2010-03-28"
"684828","2010-01-15"
"684846","2010-03-26"
"685004","2010-01-15"
"685416","2010-01-16"
"685784","2010-03-24"
"686128","2010-01-24"
"686596","2010-03-24"
"687572","2010-03-12"
"687666","2010-06-12"
"688100","2010-01-29"
"690746","2010-06-29"
"691938","2010-02-28"
"692044","2010-05-19"
"693084","2010-06-26"
"699440","2010-04-06"
"699596","2010-03-07"
"699848","2010-10-01"
"700160","2010-02-01"
"700336","2010-01-31"
"701358","2010-06-14"
"701744","2010-02-15"
"701818","2010-04-20"
"703186","2010-02-16"
"704362","2010-02-26"
"704646","2010-04-13"
"705242","2010-04-08"
"706248","2010-02-17"
"706558","2010-02-06"
"706860","2010-02-07"
"706962","2010-02-15"
"708426","2010-05-09"
"709142","2010-02-09"
"710142","2010-02-21"
"711108","2010-07-04"
"711592","2010-02-12"
"712988","2010-02-13"
"713388","2010-02-13"
"713872","2010-04-20"
"715094","2010-02-15"
"715108","2010-07-03"
"715132","2010-03-23"
"715142","2010-07-07"
"716612","2010-10-07"
"716792","2010-02-23"
"717148","2010-02-17"
"717834","2011-08-06"
"719730","2010-02-25"
"720620","2010-02-23"
"721164","2010-07-29"
"721378","2010-04-13"
"721536","2010-04-10"
"722354","2010-03-26"
"722912","2010-03-01"
"725148","2010-03-10"
"727056","2010-04-03"
"727548","2010-02-27"
"728434","2010-03-07"
"729186","2010-06-29"
"730220","2010-04-07"
"730418","2010-03-08"
"732524","2010-03-09"
"733026","2010-03-06"
"733028","2010-06-21"
"733756","2010-03-06"
"734762","2010-03-12"
"734770","2010-03-08"
"735000","2010-03-26"
"735662","2010-05-13"
"735800","2010-06-17"
"735808","2010-03-21"
"735894","2010-03-27"
"737792","2010-08-02"
"739142","2010-03-13"
"740068","2010-05-11"
"740136","2010-05-12"
"740304","2010-03-24"
"741578","2010-04-11"
"742246","2010-06-05"
"744258","2010-04-04"
"744972","2010-03-26"
"745590","2010-11-13"
"745668","2010-04-01"
"746500","2010-04-22"
"746676","2010-03-21"
"747252","2010-07-29"
"747464","2010-03-25"
"748340","2010-04-04"
"748742","2010-03-24"
"749304","2010-03-26"
"750990","2010-03-24"
"752226","2010-11-27"
"753754","2010-03-28"
"754192","2010-03-28"
"756762","2010-09-27"
"757214","2010-04-20"
"760014","2010-04-28"
"761648","2011-06-09"
"761956","2010-09-14"
"761976","2010-09-01"
"762604","2010-04-06"
"763048","2010-04-13"
"763826","2010-04-21"
"764418","2010-04-11"
"769554","2010-05-05"
"770836","2010-04-20"
"771596","2010-04-16"
"773720","2010-04-21"
"773792","2010-04-20"
"773824","2010-04-20"
"774882","2010-06-08"
"775012","2010-05-18"
"777372","2010-04-22"
"778608","2010-05-17"
"779430","2010-04-24"
"780154","2010-06-17"
"780318","2010-10-05"
"780520","2010-05-19"
"782846","2010-04-28"
"783112","2010-04-30"
"788370","2010-05-06"
"789464","2010-05-04"
"790224","2010-05-14"
"790650","2010-05-18"
"791076","2010-05-07"
"791270","2010-05-12"
"791490","2010-08-20"
"793388","2010-05-21"
"794184","2010-06-08"
"797024","2010-06-08"
"797668","2010-05-14"
"800030","2010-05-16"
"801158","2010-05-24"
"801278","2010-06-28"
"803212","2010-06-05"
"803926","2010-06-25"
"805052","2010-06-08"
"805124","2010-05-21"
"807622","2010-06-02"
"808030","2010-05-28"
"808162","2010-06-13"
"808534","2010-06-26"
"809132","2010-05-27"
"811170","2010-05-28"
"811542","2012-07-29"
"811776","2010-06-01"
"812016","2010-08-22"
"812416","2010-10-05"
"813492","2010-06-21"
"813822","2010-06-05"
"816006","2010-10-15"
"817216","2010-07-01"
"821290","2010-08-17"
"823500","2010-06-10"
"826028","2010-07-14"
"826054","2010-06-14"
"829484","2010-06-28"
"829822","2010-08-17"
"831070","2010-06-20"
"831080","2010-06-24"
"831332","2010-06-25"
"833094","2010-06-24"
"838040","2010-06-27"
"838438","2010-06-29"
"839172","2010-06-28"
"839178","2010-06-29"
"840182","2010-06-30"
"841184","2010-10-30"
"841242","2010-06-30"
"842394","2010-07-01"
"844388","2010-07-30"
"845774","2010-08-22"
"845846","2010-07-19"
"846524","2010-07-31"
"847528","2010-07-12"
"848368","2010-07-30"
"849904","2010-07-28"
"850112","2010-08-11"
"850206","2010-07-10"
"850852","2010-12-23"
"851042","2010-07-12"
"851110","2010-07-19"
"851140","2010-07-12"
"851168","2010-08-02"
"851590","2010-07-13"
"851698","2010-07-14"
"851878","2010-08-23"
"853748","2010-07-31"
"855380","2010-07-30"
"857792","2010-07-22"
"860154","2010-11-14"
"860180","2010-08-22"
"864252","2010-08-12"
"870196","2010-08-04"
"870528","2010-10-14"
"870594","2010-08-11"
"874326","2010-11-18"
"877020","2010-08-09"
"877690","2010-08-22"
"878092","2010-11-14"
"878294","2010-08-10"
"879910","2010-08-17"
"881578","2010-08-20"
"886152","2010-10-27"
"886970","2010-09-03"
"886982","2010-08-22"
"887102","2010-08-22"
"887288","2010-10-22"
"889982","2010-09-09"
"890090","2010-08-27"
"890128","2010-12-18"
"890210","2010-08-25"
"890790","2012-06-04"
"890794","2010-08-23"
"890994","2010-09-24"
"891028","2010-09-11"
"891250","2010-08-25"
"894900","2010-08-27"
"895032","2010-08-27"
"895088","2010-08-27"
"895176","2010-10-04"
"895344","2010-08-27"
"895386","2010-09-28"
"896364","2010-11-14"
"897638","2010-09-21"
"898036","2010-09-11"
"898520","2010-09-13"
"898558","2010-09-29"
"898584","2010-09-24"
"898654","2010-09-01"
"901062","2010-10-03"
"902264","2010-09-13"
"909272","2010-09-25"
"910572","2010-09-14"
"913528","2010-10-13"
"913846","2010-10-01"
"914312","2010-09-17"
"920614","2010-09-29"
"922370","2010-10-06"
"925100","2010-09-29"
"925350","2010-10-07"
"925778","2010-10-23"
"926016","2010-10-20"
"926636","2010-12-21"
"926794","2010-10-05"
"927406","2010-11-13"
"927652","2010-10-01"
"930708","2010-10-04"
"931190","2010-10-05"
"932134","2010-10-08"
"933270","2010-10-06"
"936836","2010-10-13"
"937562","2010-10-11"
"938614","2010-10-15"
"939562","2011-08-16"
"939860","2010-10-15"
"939914","2010-10-31"
"940668","2010-10-20"
"942310","2010-12-30"
"944308","2010-11-12"
"946968","2010-11-13"
"950176","2010-10-23"
"951486","2010-10-25"
"953914","2010-11-17"
"960490","2010-11-07"
"965130","2010-11-09"
"966210","2012-05-02"
"966238","2010-11-13"
"976758","2010-11-22"
"979958","2010-12-02"
"986296","2010-12-15"
"992674","2010-12-11"
"995854","2010-12-23"
"999004","2011-05-18"
"1006714","2011-11-12"
"1007504","2010-12-28"
"1014262","2011-06-01"
"1017672","2011-05-18"
"1018714","2011-02-03"
"1022924","2011-03-10"
"1064264","2011-02-19"
"1076366","2011-09-30"
"1105848","2011-05-18"
"1120290","2011-10-27"
"1164852","2011-08-23"
"1182296","2012-03-23"
"1204648","2011-06-30"
"1222576","2011-11-30"
"1237252","2012-05-02"
"1250800","2012-03-28"
"1263208","2012-07-12"
"1265946","2011-12-21"
"1302228","2012-05-23"
"1348758","2012-04-29"
"1354726","2012-06-03"
"1371938","2012-01-21"
"1372122","2012-04-29"
"1414412","2012-04-05"
"1507988","2012-08-22"
"1541958","2012-08-20"
"1558478","2012-08-22"
"1571104","2012-07-29"
"1575790","2012-09-30"
"1706788","2012-08-01"
"1870612","2013-01-08"
"1879022","2013-01-27"
"1890754","2013-03-07"
"1923554","2013-03-07"
