"component","open_issues","average_age"
"action.module","1","641"
"aggregator.module","1","521"
"ajax system","1","338"
"Bartik theme","4","617"
"base system","16","296"
"block.module","2","54"
"book.module","3","462"
"bootstrap system","3","52"
"cache system","1","614"
"comment.module","5","379"
"config.module","1","601"
"configuration system","2","80"
"config_translation.module","3","127"
"contact.module","2","84"
"content_translation.module","3","177"
"contextual.module","4","124"
"cron system","1","542"
"CSS","4","251"
"database system","4","183"
"database update system","1","301"
"dblog.module","1","516"
"documentation","10","329"
"editor.module","1","340"
"entity system","4","158"
"entity_reference.module","4","291"
"field_ui.module","5","306"
"file system","5","210"
"file.module","2","536"
"forms system","11","719"
"forum.module","2","301"
"image system","4","213"
"image.module","2","315"
"install system","6","425"
"language system","3","467"
"language.module","3","279"
"locale.module","4","298"
"markup","2","211"
"menu system","11","161"
"menu.module","1","105"
"migration system","1","33"
"mysql db driver","1","121"
"node system","16","416"
"options.module","1","138"
"other","17","269"
"path.module","2","353"
"phpunit","3","51"
"postgresql database","1","822"
"quickedit.module","2","48"
"routing system","1","159"
"search.module","1","216"
"Seven theme","1","3"
"simpletest.module","7","399"
"statistics.module","1","96"
"system.module","4","391"
"text.module","1","63"
"theme system","5","264"
"toolbar.module","1","230"
"tour.module","1","14"
"translation.module","1","224"
"update.module","3","717"
"user interface text","13","582"
"user system","2","301"
"user.module","6","684"
"views.module","4","319"
"views_ui.module","5","277"
