"component","open_issues","average_age"
"action.module","1","2"
"ajax system","1","24"
"base system","9","38"
"basic_auth.module","1","55"
"block.module","2","25"
"book.module","1","2"
"breakpoint.module","1","2"
"cache system","3","45"
"ckeditor.module","1","27"
"configuration entity system","4","30"
"configuration system","8","34"
"content_translation.module","1","2"
"database system","2","18"
"database update system","1","55"
"documentation","4","30"
"entity system","14","37"
"extension system","2","4"
"field system","3","7"
"file system","2","19"
"filter.module","1","208"
"forms system","2","22"
"javascript","1","113"
"language system","1","2"
"menu system","2","7"
"options.module","2","38"
"other","1","6"
"plugin system","2","38"
"postgresql db driver","1","102"
"request processing system","3","33"
"routing system","5","22"
"simpletest.module","1","2"
"system.module","2","6"
"theme system","9","12"
"typed data system","1","38"
"update.module","1","2"
"views.module","8","37"
"views_ui.module","1","21"
