"nid","title","component","age","last_update","patch_updated"
"2817737","A REST resource's auth configuration MUST be non-empty, which prevents configuring it for anon access only","rest.module","229","78","180"
"2800873","'xml' format broken: Symfony's XmlEncoder maps a single-item array to a non-array","serialization.module","257","116","116"
"2824851","[PP-2] \\Drupal\\rest\\Plugin\\rest\\resource\\EntityResource::patch() makes an incorrect assumption about entity keys, hence results in incorrect behavior","rest.module","207","70","106"
"2765959","Make anonymous 4xx REST responses cacheable by PageCache (or any other reverse proxy) — and ensure every tested REST resource response's cacheability behaves as expected","rest.module","320","18","18"
"2825204","REST views: authentication is broken","rest.module","205","15","17"
"2449143","REST views specify HTML as a possible request format, so if there is a regular HTML view on the same path, it will serve JSON","rest.module","813","14","14"
