"nid","title","component","age","last_update","patch_updated"
"2563381","Hard to get page title and header both properly sanitized","render system","831","736","NULL"
"2635978","Sub-theme doesn't inherit base theme default block config","theme system","728","34","NULL"
"2752283","Attached html_head get's escaped / destroys JS code","asset library system","541","539","NULL"
"2887124","PHP Fatal error:  Call to undefined function twig_template_get_attributes()","theme system","178","164","NULL"
"943212","hook_form_system_theme_settings_alter() vs. THEME_form_system_theme_settings_alter() name-clash","theme system","2615","130","1664"
"2531824","Attribute class to check safe strings before escaping (has tests)","theme system","885","395","885"
"2695871","Media support for style tags results in 'split' aggregates","asset library system","624","623","623"
"2705405","[Regression] Developers are unable to specify absolute URLs within #image, twig, ...","asset library system","609","230","608"
"2660002","Allow explicit bubbling of cacheability metadata inside Twig template (when accessing data from instead of rendering render arrays)","render system","682","14","601"
"2830706","If directory permissions are incorrect to create aggregates the site is FUBARed","asset library system","382","382","382"
"2855458","Action dropbuttons are prematurely rendered and available only in #process","theme system","293","291","293"
"2635632","Drupal XSS filtering cuts valid attributes, make it configurable / use a blacklist","render system","729","257","267"
"1014086","Race conditions, stampedes and cold cache performance issues with css/js aggregation","asset library system","2535","84","173"
"2205027","VERSION in library declarations does not work for contributed/custom modules","asset library system","1387","131","131"
"2866194","Theme specific configurations always override the global configuration","theme system","255","59","85"
"2886904","display: block for details/summary hides drop arrows in Firefox (normalize.css update)","theme system","180","44","75"
"2070131","Form & Render Element default properties not properly merged when property is an array of callbacks","render system","1576","47","47"
"2387069","{% extends foo.html.twig %} in Twig templates does not respect theme inheritance","theme system","1105","33","33"
