"nid","title","component","age","last_update","patch_updated"
"2742371","Select lists on drag and drop interfaces can break either browsers or exceed PHP server limits for forms","menu system","557","111","NULL"
"2910353","Help user to save configuration only in default language","locale.module","84","2","NULL"
"2926309","Random fail due to APCu not being able to allocate memory","other","17","1","NULL"
"2906317","Random fail due to problems with database","other","102","25","102"
"2906470","Orphan comments and entries in comment_entity_statistics after comment field instance has been deleted","comment.module","101","29","95"
"2884052","Uploading a managed file on a custom form that allows multiple files also triggers the remove button which results in a duplicate temporary record and results in the file being deleted","file.module","190","54","74"
"2924753","Random fail in ExposedFormUITest","views_ui.module","24","21","22"
"2928249","Introduce a PHPUnit 6+ compatibility layer for Drupal\\Tests\\Listeners classes","phpunit","9","6","7"
"2914974","Migrate UI - handle sources that never have an upgrade path","migration system","65","3","3"
"2928846","[PHP 7.2] count() parameter must be an array or an object that implements Countable","base system","7","2","2"
"2912353","Handle menu_items related to Drupal 6 and 7 node translations with different IDs","migration system","76","69","NULL"
"2687843","Add back incremental migrations through the UI","migration system","638","68","494"
"2912348","Handle entity_references related to Drupal 6 and 7 node translations with different IDs","migration system","76","5","21"
"2670966","Warn users of old PHP versions","base system","664","7","12"
"2927806","[PP-2] Use PHPUnit 6 for testing when PHP version >= 7.2","phpunit","12","4","5"
"2876085","Before upgrading, audit for potential ID conflicts","migration system","222","2","2"
"2795317","Allow PHPUnit 6+ support for object mocking","phpunit","464","6","6"
