"nid","title","component","age","last_update","patch_updated"
"2728419","Node/comment views-based theme suggestions have no cacheability metadata","views.module","574","69","NULL"
"2823541","Table clicksort is lost when using views exposed filter","views.module","409","21","NULL"
"2846485","Terrible performance when rendering multi-value fields in views","views.module","322","211","NULL"
"2880275","ViewsExecutable: routeProvider is null on some AJAX requests with contextual filter","views.module","205","154","NULL"
"2894688","Drupal 8 Content View with Multilingual modules and DISTINCT throws an SQL error (3065)","views.module","153","75","NULL"
"2897223","DisplayPluginBase falsely typecasts a value which results in fatal error","views.module","141","141","NULL"
"2907954","Views with broken handlers still return results even if the results might be incorrect","views.module","93","85","NULL"
"2917327","Fatal error on url /admin/structure/block/block-content : Call to a member function getId() on null in ..EntityViewDisplay->buildMultiple() line 254 of ...EntityViewDisplay.php","views.module","55","54","NULL"
"2917387","renaming a View block display ID breaks the associated block","views.module","55","55","NULL"
"2923131","Views date field/timezone breaks in timezones that have varying offset, e.g. BST","views.module","30","30","NULL"
"2924243","Content language of view row rendering option gives redundant content","views.module","26","26","NULL"
"2925223","drupal views tabs inconsistent output","views_ui.module","22","22","NULL"
"2925792","Views aggregation with is none of filter returns null value for field","views.module","20","20","NULL"
"2551037","Allow DisplayPluginInterface::access() to return an AccessResultInterface object with cacheability metadata","views.module","853","509","852"
"1685144","Call to a member function init_display() on a non-object in modules/all/views/plugins/views_plugin_localization.inc","views.module","1978","428","768"
"1482824","Block display view ajax pager does not advance with multiple pagers on a page when the first pager > 0","views.module","2100","288","698"
"2450195","Original language of entities not accessible in views anymore","views.module","1008","484","515"
"1877678","Exposed filter gets error class without submitting it","views.module","1806","139","484"
"2818185","Views methods FieldPluginBase::renderAsLink and renderText() uses base_path() when it should use $context->getBaseUrl()","views.module","425","243","423"
"2825446","Moving a filter to the end of a Filter group in filter rearrange doesn't work","views_ui.module","401","273","400"
"2819908","Any views argument after a missing one is silently ignored (D8)","views.module","422","368","395"
"2832910","Field rendered on revisions with translations enabled produce SQL errors","views.module","374","373","373"
"2836390","Aggregation handler override causes schema errors","views.module","362","358","358"
"2811041","Allow views base tables to define additional cache tags and max age","views.module","435","272","272"
"2829178","filter Is none of in taxonomy view gateway timeout and floods the watchdog table","views.module","388","75","270"
"2839440","Exposed filter criteria gives InvalidArgumentException: The #default_value property has to be an entity object or an array of entity objects. in Drupal\\Core\\Entity\\Element\\EntityAutocomplete::valueCallback()","views_ui.module","351","220","268"
"2655694","Views: creating a block-only view with contextual filters results in InvalidArgumentException: You cannot create a URL to a display without routes. ","views.module","689","205","254"
"2873224","Fatal error when trying to save a View, getting InvalidArgumentException","views.module","230","18","230"
"2829921","Language Neutral Taxonomy cannot be filtered on","views.module","385","44","217"
"2887144","Views exposed form block options are not updated immediately when adding additional sorts, filters, etc (Caching?)","views.module","178","123","123"
"2910501","Reference method Views: Filter by an entity reference view is broken","views.module","83","3","78"
"2891923","RSS views do not show nodes in the correct language","views.module","163","74","75"
"2902187","[PP-1] Provide a way for users to moderate content","content_moderation.module","120","73","73"
"2027043","Allow page displays to be both local tasks and menu items","views.module","1633","71","71"
"2913971","Views regression: 8.4.x EntityField can't handle a null row value from a non-required relationship","views.module","70","51","70"
"1766338","Incorrect filter group OR behavior, LEFT JOIN changed to INNER JOIN","views.module","1929","28","69"
"2914124","Saving a view's menu item overwrites the view's original translation","views.module","69","65","65"
"2917006","Updated from 8.3.7 to 8.4 - drush updb fails the task: Fix table names for revision metadata fields.","views.module","56","6","56"
"2693727","Limiting options for exposed Language filters causes errors and doesn't work for special languages","views.module","629","24","55"
"2815881","Switching on aggregation on generates fatal  Column not found: 1054 Unknown column SQL error when using multi-column Fields","views.module","429","29","53"
"2895544","Datetime module missing view plugin config schema","datetime.module","148","14","44"
"2509986","EntityViewsData is broken for fields with 'numeric' columns, such as decimal fields (DecimalItem)","views.module","905","41","41"
"2715483","[regression] getEntity() doesn't always return entity, which results in add comment field not working in Views","views.module","594","36","36"
"2922025","Views cannot create a relationship using entity UUID field","views.module","35","29","34"
"2903942","Fatal error on admin/content","views.module","113","30","30"
"2673980","RSS view with fields give wrong URL from path field","views.module","659","23","23"
"2915175","Duplicating the Page to Block and saving destroys the Page","views_ui.module","64","15","15"
"2797583","[PP-1] Publish / unpublish actions are incompatible with Content Moderation provide action plugins for every state instead","content_moderation.module","460","7","7"
"2929835","[regression] Modules can no longer alter the the table queue of a \\Drupal\\views\\Plugin\\views\\query\\Sql query object","views.module","2","2","2"
