"nid","final_date"
"22336","2014-07-29"
"111715","2014-07-29"
"301071","2014-07-29"
"352951","2014-07-29"
"375397","2014-07-29"
"532512","2014-07-29"
"576276","2014-07-29"
"613936","2014-07-29"
"625958","2014-07-29"
"675446","2014-07-29"
"731724","2014-07-29"
"732022","2014-07-29"
"918808","2014-07-29"
"943772","2014-07-29"
"949616","2014-07-29"
"1028092","2014-07-29"
"1029606","2014-07-29"
"1050616","2014-07-29"
"1067408","2014-07-29"
"1089472","2014-07-29"
"1097100","2014-07-29"
"1112854","2014-07-29"
"1113588","2014-07-29"
"1137920","2014-07-29"
"1167144","2014-07-29"
"1179424","2014-07-29"
"1179426","2014-07-29"
"1188880","2014-07-29"
"1199946","2014-07-29"
"1203532","2014-07-29"
"1206200","2014-07-29"
"1269742","2014-07-29"
"1272706","2014-07-29"
"1284658","2014-07-29"
"1299424","2014-07-29"
"1301814","2014-07-29"
"1302404","2014-07-29"
"1316692","2014-07-29"
"1320648","2014-07-29"
"1327958","2014-07-29"
"1331350","2014-07-29"
"1331370","2014-07-29"
"1331486","2014-07-29"
"1336170","2014-07-29"
"1352000","2014-07-29"
"1361226","2014-07-29"
"1368394","2014-07-29"
"1400748","2014-07-29"
"1401558","2014-07-29"
"1414394","2014-07-29"
"1425330","2014-07-29"
"1428784","2014-07-29"
"1447686","2014-07-29"
"1448330","2014-07-29"
"1463656","2014-07-29"
"1464554","2014-07-29"
"1464944","2014-07-29"
"1475020","2014-07-29"
"1479652","2014-07-29"
"1491526","2014-07-29"
"1497374","2014-07-29"
"1498574","2014-07-29"
"1498674","2014-07-29"
"1500312","2014-07-29"
"1506630","2014-07-29"
"1508872","2014-07-29"
"1535868","2014-07-29"
"1538462","2014-07-29"
"1541674","2014-07-29"
"1550454","2014-07-29"
"1552744","2014-07-29"
"1555598","2014-07-29"
"1558464","2014-07-29"
"1565718","2014-07-29"
"1589174","2014-07-29"
"1599554","2014-07-29"
"1605290","2014-07-29"
"1605324","2014-07-29"
"1609760","2014-07-29"
"1617208","2014-07-29"
"1618164","2014-07-29"
"1619446","2014-07-29"
"1636992","2014-07-29"
"1642526","2014-07-29"
"1655422","2014-07-29"
"1668866","2014-07-29"
"1669902","2014-07-29"
"1675260","2014-07-29"
"1696416","2014-07-29"
"1696640","2014-07-29"
"1696660","2014-07-29"
"1697256","2014-07-29"
"1698108","2014-07-29"
"1706064","2014-07-29"
"1708692","2014-07-29"
"1709960","2014-07-29"
"1716790","2014-07-29"
"1717678","2014-07-29"
"1719250","2014-07-29"
"1722882","2014-07-29"
"1727538","2014-07-29"
"1732730","2014-07-29"
"1735118","2014-07-29"
"1740378","2014-07-29"
"1740958","2014-07-29"
"1749782","2014-07-29"
"1754246","2014-07-29"
"1758622","2014-07-29"
"1759026","2014-07-29"
"1772466","2014-07-29"
"1776030","2014-07-29"
"1779638","2014-07-29"
"1784234","2014-07-29"
"1784312","2014-07-29"
"1787012","2014-07-29"
"1788084","2014-07-29"
"1789606","2014-07-29"
"1789722","2014-07-29"
"1792536","2014-07-29"
"1798222","2014-07-29"
"1798382","2014-07-29"
"1798732","2014-07-29"
"1798738","2014-07-29"
"1798756","2014-07-29"
"1800022","2014-07-29"
"1800122","2014-07-29"
"1805332","2014-07-29"
"1806022","2014-07-29"
"1808220","2014-07-29"
"1808248","2014-07-29"
"1810370","2014-07-29"
"1810428","2014-07-29"
"1810990","2014-07-29"
"1811684","2014-07-29"
"1817020","2014-07-29"
"1818556","2014-07-29"
"1821534","2014-07-29"
"1822000","2014-07-29"
"1824848","2014-07-29"
"1825568","2014-07-29"
"1825952","2014-07-31"
"1826574","2014-07-29"
"1827038","2014-07-29"
"1827436","2014-07-29"
"1830588","2014-07-29"
"1830844","2014-07-29"
"1831184","2014-07-29"
"1831350","2014-07-29"
"1831846","2014-07-29"
"1833010","2014-07-31"
"1833928","2014-07-29"
"1839064","2014-07-29"
"1843220","2014-07-29"
"1843844","2014-07-29"
"1845546","2014-07-29"
"1847084","2014-07-29"
"1847828","2014-07-29"
"1848040","2014-07-29"
"1848200","2014-07-29"
"1848570","2014-07-29"
"1848998","2014-07-29"
"1849004","2014-07-29"
"1849564","2014-07-29"
"1851414","2014-07-29"
"1852454","2014-07-29"
"1854274","2014-07-29"
"1854540","2014-07-29"
"1854838","2014-07-29"
"1855260","2014-07-29"
"1856766","2014-07-29"
"1860778","2014-07-29"
"1862202","2014-07-29"
"1864292","2014-07-29"
"1866610","2014-07-29"
"1870614","2014-07-29"
"1870764","2014-07-29"
"1871032","2014-07-29"
"1872206","2014-08-10"
"1872522","2014-07-29"
"1872786","2014-07-29"
"1874562","2014-07-29"
"1875086","2014-07-29"
"1876904","2014-07-29"
"1876906","2014-07-29"
"1880588","2014-07-29"
"1881096","2014-07-29"
"1881582","2014-07-29"
"1887654","2014-07-29"
"1887750","2014-07-29"
"1888734","2014-07-29"
"1889620","2014-07-29"
"1889790","2014-07-29"
"1889826","2014-07-29"
"1890748","2014-07-29"
"1890878","2014-07-29"
"1891052","2014-07-29"
"1892504","2014-07-29"
"1892530","2014-07-29"
"1893400","2014-07-29"
"1893800","2014-07-29"
"1894328","2014-07-29"
"1895702","2014-07-29"
"1898236","2014-07-29"
"1898804","2014-07-29"
"1900458","2014-07-29"
"1901546","2014-07-29"
"1904404","2014-07-29"
"1905152","2014-07-29"
"1906810","2014-07-29"
"1911492","2014-07-29"
"1911884","2014-07-29"
"1912028","2014-07-29"
"1912602","2014-07-29"
"1912806","2014-07-29"
"1914932","2014-07-29"
"1915774","2014-07-29"
"1918190","2014-07-29"
"1920744","2014-07-29"
"1922034","2014-07-29"
"1922814","2014-07-29"
"1925658","2014-07-29"
"1927174","2014-07-29"
"1927546","2014-07-29"
"1929506","2014-07-29"
"1929816","2014-07-29"
"1936010","2014-07-29"
"1936806","2014-07-29"
"1938960","2014-07-29"
"1939994","2014-07-29"
"1941164","2014-07-29"
"1941288","2014-07-29"
"1942000","2014-07-29"
"1943726","2014-07-29"
"1944636","2014-07-29"
"1948650","2014-07-29"
"1949724","2014-07-29"
"1952062","2014-07-29"
"1953800","2014-07-29"
"1954892","2014-07-29"
"1954968","2014-07-29"
"1956434","2014-07-29"
"1957276","2014-07-29"
"1957748","2014-07-29"
"1957888","2014-07-29"
"1958702","2014-07-29"
"1959574","2014-07-29"
"1960032","2014-07-29"
"1960612","2014-07-29"
"1962130","2014-07-29"
"1962578","2014-07-29"
"1962780","2014-07-29"
"1964156","2014-07-29"
"1965048","2014-07-29"
"1965128","2014-07-29"
"1968398","2014-07-29"
"1969680","2014-07-29"
"1972982","2014-07-29"
"1972990","2014-07-29"
"1975490","2014-07-29"
"1978422","2014-07-29"
"1979244","2014-07-29"
"1979468","2014-07-29"
"1980632","2014-07-29"
"1983554","2014-07-29"
"1987066","2014-07-29"
"1987262","2014-07-29"
"1987510","2014-07-29"
"1987810","2014-07-29"
"1987858","2014-07-29"
"1987952","2014-07-29"
"1989468","2014-07-29"
"1994140","2014-07-29"
"1994146","2014-07-29"
"1996378","2014-07-29"
"1998088","2014-07-29"
"1998204","2014-07-29"
"1998366","2014-07-29"
"2000384","2014-07-29"
"2000558","2014-07-29"
"2001310","2014-07-29"
"2001350","2014-07-29"
"2002158","2014-07-29"
"2002168","2014-07-29"
"2003578","2014-07-29"
"2004086","2014-07-29"
"2004098","2014-07-29"
"2004282","2014-07-29"
"2004300","2014-07-29"
"2004370","2014-07-29"
"2004626","2014-07-29"
"2005434","2014-07-29"
"2005590","2014-07-29"
"2005716","2014-07-29"
"2006152","2014-07-29"
"2008644","2014-07-29"
"2009670","2014-07-29"
"2010290","2014-07-29"
"2010322","2014-07-29"
"2011006","2014-07-29"
"2015687","2014-07-29"
"2015697","2014-07-29"
"2015721","2014-07-29"
"2015789","2014-07-29"
"2016177","2014-07-29"
"2017207","2014-07-29"
"2018375","2014-07-29"
"2019055","2014-07-29"
"2019123","2014-07-29"
"2019481","2014-07-29"
"2019911","2014-07-29"
"2021779","2014-07-29"
"2021817","2014-07-29"
"2022549","2014-07-29"
"2025883","2014-07-29"
"2027115","2014-07-29"
"2027183","2014-07-29"
"2028145","2014-07-29"
"2028457","2014-07-29"
"2029471","2014-07-29"
"2029737","2014-07-29"
"2029751","2014-07-29"
"2029755","2014-07-29"
"2030073","2014-07-29"
"2030129","2014-07-29"
"2030913","2014-07-29"
"2031707","2014-07-29"
"2032033","2014-07-29"
"2032369","2014-07-29"
"2032535","2014-07-29"
"2032711","2014-07-29"
"2036351","2014-07-29"
"2036689","2014-07-29"
"2040265","2014-07-29"
"2041283","2014-07-29"
"2042487","2014-07-29"
"2042807","2014-07-29"
"2045151","2014-07-29"
"2046385","2014-07-29"
"2046737","2014-07-29"
"2047229","2014-07-29"
"2047619","2014-07-29"
"2047633","2014-07-29"
"2049039","2014-07-29"
"2049121","2014-07-29"
"2049465","2014-07-29"
"2050801","2014-07-29"
"2051847","2014-07-29"
"2053153","2014-07-29"
"2053519","2014-07-29"
"2054011","2014-07-29"
"2055853","2014-07-29"
"2056405","2014-07-29"
"2056627","2014-07-29"
"2056737","2014-07-29"
"2057401","2014-07-29"
"2057831","2014-07-29"
"2058321","2014-07-29"
"2062151","2014-07-29"
"2063191","2014-07-29"
"2064181","2014-07-29"
"2064591","2014-07-29"
"2065949","2014-07-29"
"2068471","2014-07-29"
"2069191","2014-07-29"
"2070651","2014-07-29"
"2071969","2014-07-29"
"2071997","2014-07-29"
"2072647","2014-07-29"
"2073033","2014-07-29"
"2073531","2014-07-29"
"2073535","2014-07-29"
"2073819","2014-07-29"
"2073823","2014-07-29"
"2074475","2014-07-29"
"2076085","2014-07-29"
"2076411","2014-07-29"
"2078155","2014-07-29"
"2078507","2014-07-29"
"2078583","2014-07-29"
"2078625","2014-07-29"
"2078813","2014-07-29"
"2078837","2014-07-29"
"2080823","2014-07-29"
"2081963","2014-07-29"
"2082117","2014-07-29"
"2082499","2014-07-29"
"2083415","2014-07-29"
"2083547","2014-07-29"
"2083785","2014-07-29"
"2083803","2014-07-29"
"2083877","2014-07-29"
"2084197","2014-07-29"
"2084339","2014-07-29"
"2084421","2014-07-29"
"2087393","2014-07-29"
"2088121","2014-07-29"
"2089635","2014-07-29"
"2089671","2014-07-29"
"2090783","2014-07-29"
"2091397","2014-07-29"
"2091401","2014-07-29"
"2091403","2014-07-29"
"2091523","2014-07-29"
"2091691","2014-07-29"
"2095195","2014-07-29"
"2095399","2014-07-29"
"2095959","2014-07-29"
"2097327","2014-07-29"
"2097437","2014-07-29"
"2098119","2014-07-29"
"2099105","2014-07-29"
"2099131","2014-07-29"
"2099133","2014-07-29"
"2099741","2014-07-29"
"2100303","2014-07-29"
"2100753","2014-07-29"
"2101661","2014-07-29"
"2102477","2014-07-29"
"2102479","2014-07-29"
"2102487","2014-07-29"
"2102499","2014-07-29"
"2102503","2014-07-29"
"2102521","2014-07-29"
"2102653","2014-07-29"
"2105407","2014-07-29"
"2105581","2014-07-29"
"2105939","2014-07-29"
"2106171","2014-07-29"
"2106349","2014-07-29"
"2106459","2014-07-29"
"2106709","2014-07-29"
"2107533","2014-07-29"
"2108419","2014-07-29"
"2108599","2014-07-29"
"2108813","2014-07-29"
"2109035","2014-07-29"
"2110153","2014-07-29"
"2110615","2014-07-29"
"2110845","2014-07-29"
"2110863","2014-07-29"
"2111823","2014-07-29"
"2111887","2014-07-29"
"2112237","2014-07-29"
"2112261","2014-07-29"
"2113015","2014-07-29"
"2113621","2014-07-29"
"2114563","2014-07-29"
"2114707","2014-07-29"
"2115061","2014-07-29"
"2115063","2014-07-29"
"2115145","2014-07-29"
"2115291","2014-07-29"
"2116363","2014-07-29"
"2117265","2014-07-29"
"2118181","2014-07-29"
"2118703","2014-07-29"
"2119905","2014-07-29"
"2120003","2014-07-29"
"2121461","2014-07-29"
"2121751","2014-07-29"
"2124535","2014-07-29"
"2124957","2014-07-29"
"2126973","2014-07-29"
"2129039","2014-07-29"
"2130205","2014-07-29"
"2131851","2014-07-29"
"2132551","2014-07-29"
"2133325","2014-07-29"
"2134857","2014-07-29"
"2134951","2014-07-29"
"2135189","2014-07-31"
"2136197","2014-07-29"
"2137217","2014-07-29"
"2137231","2014-07-29"
"2139407","2014-07-29"
"2139769","2014-07-29"
"2140433","2014-07-29"
"2140447","2014-07-29"
"2140459","2014-07-29"
"2141041","2014-07-29"
"2141501","2014-07-29"
"2142553","2014-07-29"
"2143069","2014-07-29"
"2143097","2014-07-29"
"2143291","2014-08-01"
"2143933","2014-07-29"
"2144263","2014-08-01"
"2144327","2014-07-29"
"2144631","2014-07-29"
"2145463","2014-07-29"
"2146027","2014-07-29"
"2147501","2014-07-29"
"2148071","2014-07-29"
"2148211","2014-07-29"
"2149649","2014-07-29"
"2150407","2014-07-29"
"2151439","2014-07-29"
"2151457","2014-07-29"
"2151459","2014-07-29"
"2151829","2014-07-29"
"2153891","2014-07-29"
"2155785","2014-07-29"
"2157053","2014-07-29"
"2158003","2014-07-29"
"2158571","2014-07-29"
"2160021","2014-07-29"
"2160575","2014-07-29"
"2161217","2014-07-29"
"2161591","2014-07-29"
"2162013","2014-07-29"
"2163003","2014-07-29"
"2164367","2014-07-29"
"2164827","2014-07-29"
"2166065","2014-07-29"
"2167039","2014-07-29"
"2167109","2014-07-29"
"2167167","2014-07-29"
"2167507","2014-07-29"
"2167611","2014-07-29"
"2167623","2014-07-29"
"2167641","2014-07-29"
"2168011","2014-07-29"
"2168113","2014-07-29"
"2169835","2014-07-29"
"2170471","2014-07-29"
"2171015","2014-07-29"
"2171071","2014-07-29"
"2172123","2014-07-29"
"2172561","2014-07-29"
"2172859","2014-07-29"
"2173171","2014-07-29"
"2173655","2014-07-29"
"2174997","2014-07-29"
"2175447","2014-07-29"
"2175739","2014-07-29"
"2175917","2014-07-29"
"2176669","2014-07-29"
"2177031","2014-07-29"
"2177041","2014-07-29"
"2177045","2014-07-29"
"2177469","2014-07-29"
"2178723","2014-07-29"
"2178725","2014-07-29"
"2179083","2014-07-29"
"2180109","2014-07-29"
"2181283","2014-07-29"
"2181285","2014-07-29"
"2181289","2014-07-29"
"2181293","2014-07-29"
"2182055","2014-07-29"
"2182603","2014-07-29"
"2183231","2014-07-29"
"2185617","2014-07-29"
"2187483","2014-07-29"
"2188565","2014-07-29"
"2189453","2014-07-29"
"2190421","2014-07-29"
"2190643","2014-07-29"
"2191101","2014-07-29"
"2191107","2014-07-29"
"2192809","2014-07-29"
"2193023","2014-07-29"
"2193521","2014-07-29"
"2194357","2014-07-29"
"2194445","2014-07-29"
"2195753","2014-07-29"
"2195915","2014-07-29"
"2197359","2014-07-29"
"2198423","2014-07-29"
"2198429","2014-07-29"
"2199483","2014-07-29"
"2200185","2014-07-29"
"2201399","2014-07-29"
"2202611","2014-07-29"
"2203239","2014-07-29"
"2204159","2014-07-29"
"2205215","2014-07-29"
"2205367","2014-07-29"
"2207341","2014-07-29"
"2207893","2014-07-29"
"2209595","2014-07-29"
"2210637","2014-07-29"
"2211949","2014-07-29"
"2212081","2014-07-29"
"2215413","2014-07-29"
"2215503","2014-07-29"
"2215719","2014-07-29"
"2216071","2014-07-29"
"2216437","2014-07-29"
"2216701","2014-07-29"
"2216909","2014-07-29"
"2217543","2014-07-29"
"2217749","2014-07-29"
"2217781","2014-07-29"
"2217877","2014-07-29"
"2218025","2014-08-01"
"2218655","2014-07-29"
"2219499","2014-07-29"
"2220749","2014-07-29"
"2220757","2014-07-29"
"2221767","2014-07-29"
"2222315","2014-07-29"
"2222719","2014-07-29"
"2224427","2014-07-29"
"2224777","2014-07-29"
"2224779","2014-07-29"
"2224861","2014-07-29"
"2224873","2014-07-29"
"2224887","2014-07-29"
"2225629","2014-07-29"
"2225699","2014-07-29"
"2225739","2014-07-29"
"2226197","2014-07-29"
"2226903","2014-07-29"
"2227367","2014-07-29"
"2228261","2014-07-29"
"2228291","2014-07-29"
"2228763","2014-07-29"
"2228795","2014-07-29"
"2228921","2014-07-29"
"2229223","2014-07-29"
"2229283","2014-07-29"
"2232275","2014-07-29"
"2232597","2014-07-29"
"2233403","2014-07-29"
"2233623","2014-07-29"
"2233929","2014-07-29"
"2234159","2014-07-29"
"2234623","2014-07-29"
"2235099","2014-07-29"
"2236553","2014-07-29"
"2236851","2014-07-29"
"2238069","2014-07-29"
"2238217","2014-07-29"
"2238725","2014-07-29"
"2239009","2014-07-29"
"2239065","2014-07-29"
"2240709","2014-07-29"
"2240987","2014-07-29"
"2241249","2014-07-29"
"2241461","2014-07-29"
"2241827","2014-07-29"
"2244447","2014-07-29"
"2244885","2014-07-29"
"2245721","2014-07-29"
"2245729","2014-07-29"
"2246447","2014-07-29"
"2246557","2014-07-29"
"2247287","2014-07-29"
"2247381","2014-07-29"
"2247779","2014-07-29"
"2247991","2014-07-29"
"2248149","2014-07-29"
"2248151","2014-07-29"
"2251719","2014-07-29"
"2251915","2014-07-29"
"2253735","2014-07-29"
"2256521","2014-08-01"
"2257769","2014-07-29"
"2258299","2014-07-29"
"2259525","2014-07-29"
"2261181","2014-07-29"
"2261677","2014-07-29"
"2262861","2014-07-29"
"2263201","2014-07-29"
"2263287","2014-07-29"
"2263329","2014-07-29"
"2263351","2014-07-29"
"2265939","2014-08-02"
"2265977","2014-07-29"
"2266547","2014-07-29"
"2268939","2014-07-29"
"2272081","2014-07-29"
"2273311","2014-07-29"
"2273489","2014-07-29"
"2273689","2014-07-29"
"2275535","2014-07-29"
"2276183","2014-07-29"
"2278117","2014-07-29"
"2280955","2014-07-29"
"2284103","2014-07-29"
"2284111","2014-07-29"
"2287139","2014-07-29"
"2289183","2014-07-29"
"2291777","2014-07-29"
"2292025","2014-07-29"
"2292889","2014-07-29"
"2293773","2014-07-29"
"2294129","2014-07-29"
"2294771","2014-07-29"
"2295129","2014-07-30"
"2300469","2014-08-10"
"2301239","2014-07-30"
"2301273","2014-07-30"
"2301313","2014-07-30"
"2301317","2014-07-30"
"2301319","2014-07-30"
"2304965","2014-07-29"
"2307629","2014-08-04"
"2311859","2014-08-10"
"2312153","2014-08-10"
"2316153","2014-08-08"
