Issue NID,Issue link,Grantee 1,Grantee 2,Grant concluded?,Issue Closed?,Link
2002180,2002180,fago,klausi,Yes,Yes,https://assoc.drupal.org/drupal-8-accelerate-grant-report-1
2260061,2260061,Jelle_S,,Yes,Yes,https://assoc.drupal.org/d8-accelerate-grant-report-responsive-image-module-does-not-support-sizespicture-polyfill-2.2
2341323,2341323,dawehner,plach,Yes,Yes,https://assoc.drupal.org/d8-accelerate-grant-report-fix-various-critical-d8-upgrade-path-issues-related-entity-field-api
2419065,2419065,dawehner,plach,Yes,Yes,https://assoc.drupal.org/d8-accelerate-grant-report-fix-various-critical-d8-upgrade-path-issues-related-entity-field-api
2371605,2371605,dawehner,plach,Yes,Yes,https://assoc.drupal.org/d8-accelerate-grant-report-fix-various-critical-d8-upgrade-path-issues-related-entity-field-api
2396939,2396939,Fabianx,,Yes,Yes,https://assoc.drupal.org/d8-accelerate-grant-report-resolve-various-d8-memorycold-cache-performance-issues
2395113,2395113,Fabianx,,Yes,Yes,https://assoc.drupal.org/d8-accelerate-grant-report-resolve-various-d8-memorycold-cache-performance-issues
2435075,2435075,Fabianx,,Yes,Yes,https://assoc.drupal.org/d8-accelerate-grant-report-resolve-various-d8-memorycold-cache-performance-issues
2431259,2431259,Fabianx,,Yes,No,https://assoc.drupal.org/d8-accelerate-grant-report-resolve-various-d8-memorycold-cache-performance-issues
2253593,2253593,Fabianx,,Yes,Yes,https://assoc.drupal.org/d8-accelerate-grant-report-resolve-various-d8-memorycold-cache-performance-issues
2296009,2296009,Fabianx,,Yes,No,https://assoc.drupal.org/d8-accelerate-grant-report-resolve-various-d8-memorycold-cache-performance-issues
1818628,1818628,Fabianx,,Yes,No,https://assoc.drupal.org/d8-accelerate-grant-report-resolve-various-d8-memorycold-cache-performance-issues
2407177,2407177,Fabianx,,Yes,No,https://assoc.drupal.org/d8-accelerate-grant-report-resolve-various-d8-memorycold-cache-performance-issues
2247085,2247085,fago,klausi,Yes,Yes,https://assoc.drupal.org/d8-accelerate-grant-report-fix-entity-field-validation-critical-issues
2406103,2406103,fago,klausi,Yes,Yes,https://assoc.drupal.org/d8-accelerate-grant-report-fix-entity-field-validation-critical-issues
2403817,2403817,fago,klausi,Yes,Yes,https://assoc.drupal.org/d8-accelerate-grant-report-fix-entity-field-validation-critical-issues
2403823,2403823,fago,klausi,Yes,Yes,https://assoc.drupal.org/d8-accelerate-grant-report-fix-entity-field-validation-critical-issues
2405943,2405943,fago,klausi,Yes,Yes,https://assoc.drupal.org/d8-accelerate-grant-report-fix-entity-field-validation-critical-issues
2403485,2403485,fago,klausi,Yes,Yes,https://assoc.drupal.org/d8-accelerate-grant-report-fix-entity-field-validation-critical-issues
2418119,2418119,fago,klausi,Yes,No,https://assoc.drupal.org/d8-accelerate-grant-report-fix-entity-field-validation-critical-issues
2395831,2395831,fago,klausi,Yes,No,https://assoc.drupal.org/d8-accelerate-grant-report-fix-entity-field-validation-critical-issues
2429037,2429037,fago,klausi,Yes,No,https://assoc.drupal.org/d8-accelerate-grant-report-fix-entity-field-validation-critical-issues
2346373,2346373,fago,klausi,Yes,No,https://assoc.drupal.org/d8-accelerate-grant-report-fix-entity-field-validation-critical-issues
2105797,2105797,fago,klausi,Yes,No,https://assoc.drupal.org/d8-accelerate-grant-report-fix-entity-field-validation-critical-issues
2395831,2395831,fago,klausi,Yes,No,https://assoc.drupal.org/d8-accelerate-grant-report-fix-entity-field-validation-critical-issues
2263569,2263569,damiankloip,,Yes?,No,?
2252763,2252763,damiankloip,,Yes?,Yes,?
356399,356399,dawehner,,Yes,Yes,https://assoc.drupal.org/d8-accelerate-grant-report-optimize-route-rebuilding-process-rebuild-write
2451665,2451665,dawehner,,Yes,Yes,https://assoc.drupal.org/d8-accelerate-grant-report-optimize-route-rebuilding-process-rebuild-write
2318191,2318191,amateescu,,Yes,Yes,https://assoc.drupal.org/d8-accelerate-grant-report-investigate-remaining-sqlite-problems-d8
2428695,2428695,amateescu,,Yes,Yes,https://assoc.drupal.org/d8-accelerate-grant-report-investigate-remaining-sqlite-problems-d8
2454513,2454513,amateescu,,Yes,No,https://assoc.drupal.org/d8-accelerate-grant-report-investigate-remaining-sqlite-problems-d8
2454625,2454625,amateescu,,Yes,No,https://assoc.drupal.org/d8-accelerate-grant-report-investigate-remaining-sqlite-problems-d8
2454669,2454669,amateescu,,Yes,No,https://assoc.drupal.org/d8-accelerate-grant-report-investigate-remaining-sqlite-problems-d8
2364011,2364011,neclimdul,dawehner,No,No,
2385443,2385443,dawehner,plach,No,Yes,
2342045,2342045,dawehner,plach,No,Yes,
2393339,2393339,dawehner,plach,No,No,
2418119,2418119,fago,klausi,No,No,
2395831,2395831,fago,kausi,No,No,
2429287,2429287,larowlan,,No,No,
2429257,2429257,larowlan,,No,Yes,
2099137,2099137,larowlan,,No,No,
2351015,2351015,larowlan,,No,No,
2429617,2429617,larowlan,,No,No,
2396333,2396333,larowlan,,No,Yes,
2429287,2429287,Fabianx,,No,No,
2429257,2429257,Fabianx,,No,Yes,
2099137,2099137,Fabianx,,No,No,
2396333,2396333,Fabianx,,No,Yes,
2351015,2351015,Fabianx,,No,No,
2429617,2429617,Fabianx,,No,No,