"nid","title","field_issue_priority_value","datediff(from_unixtime(change_c.changed), from_unixtime(n.created))"
"2282519","Add content dependency information to configuration entities","400","143"
"2361615","Field type config schemas are not in the base schema","400","9"
"2267453","Views plugins do not store additional dependencies","400","181"
"1426804","Allow field storages to be persisted when they have no fields.","400","1013"
