date,base system,block.module,configuration entity system,configuration system,database system,documentation,entity system,field system,file system,forms system,menu system,plugin system,routing system,theme system,views.module
March 2011,6,1,0,0,0,0,1,1,1,1,0,0,0,2,0
April 2011,6,1,0,0,1,0,1,1,1,1,0,0,0,2,0
May 2011,6,1,0,0,1,0,1,1,1,1,0,0,0,2,0
June 2011,5,1,0,0,1,0,1,1,1,1,0,0,0,2,0
July 2011,5,1,0,0,1,0,1,1,1,1,0,0,0,2,0
August 2011,5,1,0,0,0,0,1,0,1,1,0,0,0,2,0
September 2011,5,1,0,0,0,1,1,0,1,1,0,0,0,2,0
October 2011,7,1,0,0,0,0,1,0,1,1,0,0,1,2,0
November 2011,7,0,0,0,0,0,1,0,0,1,0,0,1,2,0
December 2011,7,0,0,0,0,0,2,0,0,1,0,0,1,2,0
January 2012,10,0,0,0,0,0,2,0,1,1,0,0,1,2,0
February 2012,9,0,0,2,0,1,2,0,1,1,0,0,1,2,0
March 2012,11,0,0,4,0,1,5,0,1,1,0,0,1,2,0
April 2012,11,1,0,4,0,1,5,0,1,1,0,0,1,2,0
May 2012,10,1,0,8,0,1,5,0,0,1,0,0,1,2,0
June 2012,9,1,0,5,0,1,6,0,0,2,0,0,1,2,0
July 2012,13,1,0,3,0,1,8,0,0,2,0,0,1,2,0
August 2012,15,1,0,4,0,1,12,1,0,2,0,1,1,2,1
September 2012,16,1,0,5,0,1,12,1,0,2,0,1,2,2,1
October 2012,13,1,0,6,0,2,11,1,0,2,1,1,1,4,2
November 2012,14,1,0,5,1,2,12,2,0,3,1,2,3,4,2
December 2012,16,1,0,7,1,3,11,2,0,3,1,2,3,4,2
January 2013,15,2,1,10,0,3,11,3,0,3,2,2,3,4,2
February 2013,15,2,1,7,0,3,10,2,0,3,2,2,4,4,4
March 2013,12,2,1,8,1,3,9,2,0,2,3,2,5,4,5
April 2013,14,2,1,8,1,3,10,4,1,2,3,2,5,5,6
May 2013,14,4,1,9,1,3,15,3,1,2,2,2,6,6,6
June 2013,11,3,1,10,1,4,17,4,1,2,2,3,5,6,7
July 2013,12,3,1,10,1,4,18,3,1,2,6,4,6,6,7
August 2013,14,3,1,10,1,4,18,4,1,2,6,3,7,7,5
September 2013,13,3,3,11,1,5,21,5,1,2,4,3,4,6,5
October 2013,20,3,5,12,1,5,21,6,2,2,5,3,5,6,5
November 2013,26,2,5,15,1,5,23,11,2,3,6,3,5,6,7
December 2013,25,3,6,16,2,5,23,11,2,3,7,3,6,7,8
January 2014,23,3,6,19,3,5,25,12,2,2,12,4,6,9,10
February 2014,22,3,6,18,3,6,25,13,2,2,10,3,6,9,11
March 2014,22,2,6,21,3,7,28,16,2,2,7,2,8,11,13
April 2014,24,1,5,28,3,8,26,16,3,3,6,2,9,9,16
May 2014,26,1,7,27,3,11,24,14,3,4,8,2,10,11,17
June 2014,24,1,8,27,3,10,23,16,3,4,8,2,11,13,17
July 2014,8,2,4,7,2,4,14,4,2,2,3,2,6,9,7
August 2014,9,2,4,8,2,4,14,3,2,2,2,2,5,9,8
