"status","nid","title","component","name","age","update_days","comment_days","patch_days","num_comments"
"1","1393358","[meta] Review 'revisit before beta' and 'revisit before release candidate' tag","base system","catch","876","14","14","NULL","19"
"4","2247287","[PP-2] Drop automatic PSR-0 support for modules","base system","Anonymous","37","3","3","NULL","29"
"1","2124749","[meta] Stop using $request->attributes->get(MAGIC_KEY) as a public API","base system","Anonymous","210","8","8","62","45"
"13","2244447","Translation of low-level info/annotations leads to circular dependencies","base system","Anonymous","41","3","3","22","22"
"8","2228763","Create a comment-type config entity and use that as comment bundles, require selection in field settings form","comment.module","larowlan","61","2","2","2","93"
"13","2224761","Add support for cross-field-type, extensible, extra configuration to  for use cases like translation sync","content_translation.module","Anonymous","66","9","9","35","70"
"4","2247381","[PP-1] Update all existing change records for PSR-4 support","documentation","tstoeckler","37","5","5","NULL","20"
"1","2244777","Document in WSCCI change notice (possibly with link to handbook) all the menu changes (tasks, actions, contextual links, menu links) from 7 to 8","documentation","Anonymous","41","22","22","NULL","9"
"8","2183231","Make ContentEntityDatabaseStorage generate static database schemas for content entities","entity system","Anonymous","121","2","2","2","297"
"13","2005434","Let 3rd party modules store extra configuration in EntityDisplay","entity system","Anonymous","367","28","28","61","33"
"4","1498720","[PP-2] Make ContentEntityDatabaseStorage handle changes in the entity schema definition","entity system","Anonymous","796","50","50","431","82"
"13","2144263","Decouple entity field storage from configurable fields","field system","Anonymous","184","4","4","5","28"
"4","2265847","Regression from D7: default titles of customized menu links aren't translated","menu system","Anonymous","17","14","14","17","6"
"1","2256669","[meta] Finalize module-facing API of getting the matched route name and a matched route argument for a request","routing system","Anonymous","27","9","9","NULL","7"
"4","2273923","Remove html => TRUE option from l() and link generator.","theme system","catch","5","3","3","4","26"
"13","1825952","Turn on twig autoescape by default.","theme system","chx","577","2","2","9","103"
