"nid","title"
"2064191","Fix the 'target_bundle' field setting - 'target_bundles' are not validated when entity_reference is enabled"
"2172843","Remove ability to update entity bundle machine names"
"2567257","hook_tokens() $sanitize option incompatible with Html sanitisation requirements"
"2570431","Document that certain (non-href) attribute values in t() and SafeMarkup::format() are not supported and may be insecure"
"2575615","Introduce HtmlEscapedText and remove SafeMarkup::setMultiple() and SafeMarkup::getAll() and remove the static safeStrings list"
"2577569","HEAD broken! system_update_8009() twice"
"2579021","Prevent comment forms from marking rendered nodes as uncacheable"
"2579187","Revert to an older entity revision with less translations leads to fatal error caused by EntityStorageException"
