"entity_id","filepath"
"1906810","files/1906810-84-do-not-test.patch"
"1959660","files/drupal-1959660-42.patch"
"2091353","files/path-module-hook-help-2091353-4.patch"
"1918994","files/date_fieldset-33.patch"
"2051467","files/transliteration-phpunit-2051467-11.patch"
"950534","files/consistent_email_950534_38.patch"
"1912536","files/1912536-remove-references-11.patch"
"1989470","files/button-and-dropbutton-combined-10.patch"
"2119481","files/2119481-9.patch"
"2073661","files/2073661-27.patch"
"1423244","files/allowed_formats-1423244-10.patch"
"1880488","files/bartik-1880488-85.patch"
"1921558","files/1921558-mimetype-guesser.patch"
"2007248","files/ckeditor-2007248-8.patch"
"2081153","files/drupal8.other_.2081153-1.patch"
"1805054","files/1805054-74_0.patch"
"1934152","files/drupal-n1934152-39-conf_ftw.patch"
"1003788","files/1003788-8.x-entity-id-datatype-support_0.patch"
"2068655","files/2068655_31.patch"
"980144","files/drupal_core-8.x-fix_multivalue_validation-980144-35b.patch"
"2100203","files/2100203.10.patch"
"2022875","files/2022875.12.patch"
"913086","files/drupal8.testing-install.108.patch"
"1008402","files/stream_wrappers-allow_symlinks-1008402-92-D7-do-not-test.patch"
"1850080","files/entity_type_count_labels-1850080-42.patch"
"2115255","files/2115255.2.patch"
"1951408","files/update_Projects+ignored+by+update_advanced+are+still+processed2-D7_0.patch"
"2023325","files/D8-classloader-swappable-2023325-31_0.patch"
"365615","files/i365615-172.patch"
"2010456","files/2010456-1.patch"
"471970","files/drupal8.simpletest-module.471970-99.patch"
"1942578","files/0001-Issue-1942578-by-fgm-Fixed-D7-regression-on-XML-RPC-_0.patch"
"2084637","files/2084637-service-container-with-get-prefix-15.patch"
"2023815","files/drupal_get_query_array_support-2023815-6.patch"
"1934568","files/image-allow-insecure-derivatives-1934568-6.patch"
"2010946","files/vdc-2010946-13.patch"
"944582","files/issue_944582-drupal-7.18.patch"
"2084987","files/drupal8.field-system.2084987-3.patch"
"1285726","files/issues/11033818-removexmlrpc_0.patch"
"1963340","files/drupal8.field-ui.module.1963340-112.patch"
"1987896","files/user-1987896-80.patch"
"1811240","files/move-password-match-and-strength-1811240-35.patch"
"2031261","files/drupal-8.x-Issue-2031261-by-axel.rutz-Fixed-SQLite-performance-.patch"
"2052473","files/aria_labels-2052473-12-do-not-test_0.patch"
"727876","files/727876-13.patch"
"2038275","files/queue-2038275-7.patch"
"2059087","files/2059087-8.x-DatabaseExceptionWrapper-pgsql.patch"
"2043773","files/drupal-2043773-5.patch"
"1857256","files/term-1857256-47.patch"
"998898","files/issues/998898-restrict-identifiers.patch"
"1205162","files/simpletest_test_duration_for_individual_tests-1205162-11.patch"
"1611954","files/drupal8.vertical-tabs-access.24.patch"
"2025643","files/drupal-zend-proxy-2025643-47.patch"
"1966436","files/1966436-default-language-75.patch"
"217676","files/taxonomy_load_parents_all-217676-20-tests_only.patch"
"1433996","files/update-1433996-3.patch"
"1885788","files/drupal-1885788-2.patch"
"2020837","files/d8_node_postdelete.patch"
"1205822","files/1205822_45.patch"
"2016629","files/kernel_bootstrap_fml.patch"
"1068266","files/1068266-followup.patch"
"1832862","files/vdc-1832862-35.patch"
"2073663","files/drupal-2073663-taxonomy-term-load-8.patch"
"550254","files/550254-192.patch"
"2028749","files/demo-addressing.patch"
"788900","files/drupal-788900-38.patch"
"736172","files/736172-drupal-goto-same-domain-3-d8.patch"
"1349080","files/1349080-d8-move-access-to-join-condition-update-test.patch"
"1854284","files/path-extra_data-1854284-8.patch"
"2073837","files/0001-Issue-2073837-by-axel.rutz-Fixed-Validation-errors-o_2.patch"
"2082657","files/feed-icon-missing-title-2082657-1.patch"
"2099615","files/core-updating-node-field-data-table-2099615-3.patch"
"2121119","files/drupal8.ajax_.dialogsettitle.patch"
"272397","files/local_settings_string-272397-4_0.patch"
"495100","files/drupal-tabledrag-495100-5.patch"
"696092","files/d8-extended_menu_on_access_denied-696092-7_0.patch"
"872206","files/image-upscale-optional-with-test-872206-24.patch"
"1078476","files/openid_verbose_logging-1078476-17_0.patch"
"1183554","files/1183554-header-warning-fix-with-tests.patch"
"1270894","files/1270894-20-language_prefixes.patch"
"1370708","files/remove-node-from-minimal-1370708-7.patch"
"1440662","files/core-js-preview-links-1440662-99.patch"
"1524438","files/user_edit_redirect.1524438.3.patch"
"1578832","files/core-fix_missing_active_trail-1578832-20-do-not-test.patch"
"1671318","files/1671318-5.hide-errors.patch"
"1751388","files/core-js-1751388-2.patch"
"1793172","files/1793172-d8-standard-installation-profile-admin-theme-variable.patch"
"1816162","files/1816162-5.patch"
"1843856","files/move_config_to_reports-1843856-1.patch"
"1861604","files/drupal-watchdog-1861604-9.patch"
"1890266","files/dropbutton-text-width-1890266-45.patch"
"1946580","files/image-style-label-followups-1946580-1.patch"
"1979260","files/1979260-01-populate-uid.patch"
"2004636","files/theme_options_elements_2004636_3.patch"
"2022765","files/2022765.maintanance-visually-hidden.1.patch"
"2032967","files/2032967-1.patch"
"2055333","files/replace_deprecated_module_invoke-2055333-4.patch"
"2077999","files/path_forms-2077999-1.patch"
"2087053","files/drupal-2087053-1.patch"
"2106967","files/duplicate_variables_0.patch"
"569434","files/term-description-569434-150.patch"
"736564","files/drupal8.form-button-redirect.8.patch"
"912460","files/drupal-912460-22.patch"
"1008280","files/issues/1008280-redundant-new.patch"
"1130902","files/issues/aggregatortheming-1130902-2.patch"
"1210178","files/issues/1210178-15-undefined-index-bundles_0.patch"
"1322890","files/add-php_extensions-param-to-dot-info-files-1322890-40.patch"
"1407746","files/support_optogrops-1407746-0_5.patch"
"1470236","files/d8-array_flip_taxonomy_field_formatter_prepare_view-1470236-9.patch"
"1533380","files/8.x...1533380.patch"
"1630894","files/1630894-get_archive_to_call_0.patch"
"1708476","files/1708476-increase-file-extension-maxlength.patch"
"1763964","files/drupal-change-theme_aggregator_block_item-1763964_0.patch"
"1826362","files/1826362-3-info-for-dimensions.patch"
"1849438","files/Drupal-pass_additional_attributes_ajax_8-1849483-6788198.patch"
"1874822","files/drupal-multiple-1874822-14.patch"
"1903386","files/drupal-1903386-3.patch"
"1933726","files/drupal-1933726-1.patch"
"1958642","files/drupal-aggregator-not-modified-1958642-3.patch"
"1987424","files/1987424-93-twig-seven-theme_0.patch"
"2030191","files/2030191-nodeapi-1.patch"
"2041909","files/2041909-add-attributes-to-theme_more_link.patch"
"2060573","files/core-js-module-search-2060573-15.patch"
"2079841","files/chx_extension.patch"
"2096347","files/drupal-autofocus_module_search-2096347-8.patch"
"2114829","files/2114829.patch"
"184010","files/core-module-anchors-184010-50.patch"
"442814","files/drupal8-default_favicon-442814-21.patch"
"656614","files/path-656614-18.patch"
"793660","files/hook_install_failure-793660-17.patch"
"939510","files/drupal8.form-state-values-clean.7.patch"
"1042718","files/drupal8.form-attributes-default.9.patch"
"1158090","files/issues/bartik-node-tpl-php-1158090-105.patch"
"1239930","files/states-required-label-1239930-29.patch"
"1430934","files/drupal-n1430934-21.patch"
"1496652","files/html5-datetime_local-1496652-2.patch"
"1551534","files/drupal8.views-module.1551534-15.patch"
"1663166","files/1663166-2-cleanup-system-admin-css.patch"
"1730028","files/form_set_class_error-1730028-8.patch"
"1808132","files/drupal-module_get_weight-1808132-9.patch"
"1835754","files/added_changed_date-1835754-1.patch"
"1854912","files/entity-delete.patch"
"1883120","files/1883120-2.patch"
"1912886","files/1912886-install-language-messages-30.patch"
"1938930","files/1938930-27-type-table-system.patch"
"1995058","files/1995058-select-all-on-page-load.patch"
"2017471","files/drupal8.language-module.2017471-59.patch"
"2030641","files/FilterFormat_methods-2030641-13.patch"
"2048369","files/2048369-comment-7679907.patch"
"2069291","files/2069291-4-node-type-access-controller.patch"
"2074217","files/field-type-settings-forms-24.patch"
"2083871","files/menu-2083871-11.patch"
"2123867","files/et-form_controller_langcode-2123867-7.patch"
"273595","files/273595-59-unpublished-node-access.patch"
"497804","files/issues/node_search_6.patch"
"698976","files/698976-84.patch"
"872600","files/872600-improve_boolean_fields_db-3-D7.patch"
"983150","files/file-validate-983150-9.patch"
"1087888","files/hook_menu_link_update_v2.patch"
"1272990","files/tabledrag-alert-1272990-47.patch"
"1371744","files/1371744-22.patch"
"1443308","files/drupal-1443308-9-module_load_include-static-cache.patch"
"1529814","files/1529814-44-skip-link.patch"
"1578998","files/forum-shadow-duplicated-1578998-8.patch"
"1751406","files/core-js-1751406-2.patch"
"1795272","files/clear-menu-item-options-for-external-urls.patch"
"1844330","files/core-admin_types_perm_check-1844330-2-do-not-test.patch"
"1862094","files/install-another-theme-1862094-1.patch"
"1892006","files/drupal-print_stylesheet-2.patch"
"1948418","files/drupal-1948418-10.patch"
"1980010","files/node-administer-nodes-description-1980010-1.patch"
"2004644","files/install-not-writable-2004644-2_0.patch"
"2055597","files/views-omit-list-singletons-2055597-2.patch"
"2078009","files/drupal8.system-module.2078009-1.patch"
"2088365","files/datetime.html_.twig-to-time.html_.twig-2088365-10.patch"
"90329","files/0002-Issue-90329-by-ericduran-Added-autocompletion-function.patch"
"355157","files/rfc2616-303-redirect-355157-27.patch"
"571548","files/vdc-571548-92.patch"
"740986","files/740986.20-form_token_error_watchdog.patch"
"1130946","files/1130946.drupal.formapi.tree-children-fall-out.patch"
"1211878","files/issues/drupal_compile_warning-1211878-6.patch"
"1327728","files/always-return-ip-address-1327728-14.patch"
"1409780","files/drupal-inculude-taxonomy_get_hierarchical_tree-1409780-01.patch"
"1473548","files/drupal8.page-classes.5.patch"
"1533390","files/drupal-statistics-coding-standards-1533390-2.patch"
"1632384","files/import-available-language-data-1632384-10-.patch"
"1710656","files/drupal-1710656-6-skip-hidden-menu-items-D6-do-not-test.patch"
"1764912","files/core-js-tableheader-fix-1764912-5.patch"
"1826452","files/drupal8.user-login-block-form.10.patch"
"1874838","files/vdc-1874838-10.patch"
"1905062","files/views-8.x-display_selected_roles-3.patch"
"1934138","files/1934138-autocomplete-comma.patch"
"1987720","files/1987720-form-test-wrapper-callback_0.patch"
"2010194","files/Avoid-warning-when-translating-node-created-before-enabling-content-translations-2010194-5.patch"
"2030207","files/2030207-image-style-1.patch"
"2042443","files/2042443_03-move-web-services-modules-to-separate-package.patch"
"2060677","files/2060677-6.patch"
"2080027","files/2080027-5.patch"
"2097123","files/drupal8.comment-module.2097123-31.patch"
"193034","files/core-module-systemnames-193034-50.patch"
"463106","files/463106-9.patch"
"658148","files/access_user_profiles_rename-658148-71_0.patch"
"799850","files/check_for_book_content_type-799850-7253534.patch"
"941266","files/order-weighted-terms-941266-49-test_only.patch"
"1159002","files/drupal8.comment-form-author.2.patch"
"1242908","files/wildcards-in-body-classes-1242908-17.patch"
"1351742","files/drupal-tableselect_select_all-1351742-8.patch"
"1431142","files/1431142_content_translation_tab-name_columns.patch"
"1499464","files/1499464.patch"
"1551686","files/1551686-10.patch"
"1663170","files/1663170-base_css_partial_cleanup_related_input_and_autocomplete_id6-3.patch"
"1734958","files/1734958.patch"
"1779056","files/book-theme-template.patch"
"1808624","files/1808624-drupal_core-selectquery_clone_missinguniqueid_recomputing-4.patch"
"1836048","files/1836048-add-idiom-04.patch"
"1884836","files/1884836-1.patch"
"1914106","files/user_autocomplete-1914106-4.patch"
"1939092","files/twig-convert_mark-1939092-66.patch"
"1971174","files/breakpoint-1971174-11.patch"
"1996906","files/sqlite_transactionalDDLSupport.patch"
"2017545","files/SimpleTest-multi_session_tests-2017545-7526477.patch"
"2030659","files/system-disable-enter-submission-on-extend-page-2030659-1.patch"
"2048887","files/2048887-appearance-settings-copy.patch"
"2069439","files/field_multi_2069439.patch"
"2074255","files/user-changed-timestamp.patch"
"2084455","files/2084455_checkArray_3.patch"
"2100637","files/2100637-08-collections.patch"
"284036","files/issues/D7-284036-9.patch"
"507180","files/0001-Issue-507180-Added-new-function-for-php-print-base_p.patch"
"713462","files/713462-drupal-add-region-content-18.patch"
"874624","files/node-874624-28_3.patch"
"989452","files/clean_up_comment_settings_per_node_type-989452-20.patch"
"1088414","files/issues/1088414-02-cron-run-queue-variable.patch"
"1188288","files/issues/1188288.3-alter_form_cache.patch"
"1275764","files/autocomplete-1275764-31.patch"
"1375016","files/1375016-comment-hook-info-reroll.patch"
"1443532","files/admin_links_on_comment.patch"
"1530700","files/book-coder-fixes-1530700-19.patch"
"1588138","files/theme_pager_query_parameters-1588138-32.patch"
"1673246","files/1673246_0.patch"
"1751434","files/user.d8.patch"
"1795476","files/1795476-hook_forms_iclude_support_0.patch"
"1818166","files/allow_theme_links_heading_use_HTML-1818166-1.patch"
"1844354","files/1844354.path_cud_events.4.patch"
"1863180","files/1863180-3.patch"
"1894130","files/dont-die-mapper-1894130-6.patch"
"1924818","files/core-factories-1924818-3.patch"
"1981404","files/multiple-parents-quick-fix_0.patch"
"2004702","files/drupal-cleanup_node_revision_overview_css-2004702-4.patch"
"2035345","files/2035345-16.patch"
"2055889","files/drupal-field-names-2055889-4.patch"
"2078013","files/drupal8.plugin-system.2078013-1.patch"
"2090969","files/session-test-controller-code-style.patch"
"2108771","files/2108771-8-special-attribute-keys.patch"
"111079","files/issues/form.inc_35.patch"
"581706","files/htacess.patch"
"749572","files/drupal-xmlrpc-optional-parameters-d8-749572.patch"
"1008644","files/drupal-form-submit-no-buttons-1008644-17.patch"
"1137052","files/drupal-menu-local-tasks-1137052-12.patch"
"1214008","files/issues/red-asterisk-1214008.patch"
"1328014","files/dblog_unicode_bug-1328014-12.patch"
"1411074","files/test.once_.10.patch"
"1473760","files/core-js-modules-dependencies-1473760-7.patch"
"1533392","files/syslog_standardized-1533392-5917932.patch"
"1632720","files/1632720-Add_tokens_for_labels-1_1.patch"
"1713332","files/drupal-sqlite_simpletest-1713332-33.patch"
"1765848","files/drupal8.install-update.0.patch"
"1805340","files/1805340-2-th-simpletest-api.patch"
"1827854","files/html5-changes-20121031-6.patch"
"1850638","files/log2-count-as-default-argument.patch"
"1875540","files/drupal8-fix_for_fragment_in_drupal_parse_url_no_fix-1875540-6.patch"
"1905370","files/show_vocabulary-1905370-37.patch"
"1962800","files/states-not-working-with-integers-in-ie-1962800-2.patch"
"1987868","files/drupal8.test_page.1987868-34.patch"
"2030291","files/2030291-postpone-entity-save-in-actions-1.patch"
"2042709","files/drupal-2042709-not-supported-message.patch"
"2061977","files/drupal-contact_replace_user_access-2061977.patch"
"2080311","files/2080311-remove-unused-local-12.patch"
"2097547","files/taxonomy-term-rss-feed-link-broken-2097547-3.patch"
"2115631","files/2115631.1.categoryActionForm.patch"
"204077","files/issues/drupal.menu-links-dynamic.34.patch"
"658650","files/help-link-permissions-page-658650-4.patch"
"802514","files/issues/db-802514-alter-connection-35.patch"
"943722","files/drupal8.form-validate-utf8.28.patch"
"1057110","files/1662942-EFQ-doesnt-allow-left-join.patch"
"1159422","files/drupal-death-to-wsod-1159422-5.patch"
"1243004","files/add-hook-to-system_theme_default-1243004-5.patch"
"1356602","files/1356602-clean-up-misc-4.patch"
"1431168","files/1431168_node_build_pages_19.patch"
"1499532","files/1499532-alter-node-alias-language-d7-do-not-test.patch"
"1555462","files/statmentprefetch.patch"
"1663184","files/system_theme_css_cleanup-1663184-3.patch"
"1736308","files/core-ajax-form-submission-during-ajax-request-fix-1736308-1.patch"
"1781766","files/drupal_1781766_comment_access-21.patch"
"1836304","files/1836304-17-d8-core-add_variable_for_default_cache_form_expiration.patch"
"1856102","files/core-remove_definition_list_from_allowed_html-1856102-1.patch"
"1884854","files/drupal-file_to_settings_file-1884854-1.patch"
"1998198","files/drupal8.user-module.1998198-37.patch"
"2017711","files/2017711-FieldTypePluginManager-getOptions-10.patch"
"2030669","files/vocab-interface-7.patch"
"2050133","files/use-MemoryDataCollector.patch"
"2069619","files/2069619-1-custom-block-block-module-handler.patch"
"2074875","files/draggable-2074875-15.patch"
"2101357","files/2101357.drupal.form-table-tableselect-merge-child-elements.patch"
"293483","files/issues/293483-38-schema_spatial.patch"
"514926","files/locale-string-is-safe-1.patch"
"720452","files/install-modules-720452-39.patch"
"992858","files/actions_do-context-default-992858-3.patch"
"1090302","files/d7-1090302-image_style_effects-8.patch"
"1199866","files/1199866-21-lru-cache-backend.patch"
"1281408","files/1281408-10_0.patch"
"1377816","files/core_update_linkfix-1377816-04.patch"
"1446470","files/1446470_2-select-node-title.patch"
"1530724","files/drupal-color-coder-cleanup-1530724-5.patch"
"1591538","files/descriptive-page-title-for-install-screens-1591538-25.patch"
"1673794","files/1673794-unpublished-access-to-translations.patch"
"1751436","files/core-js-bartik-jshint-1751436-11.patch"
"1799908","files/1799908-3-cache_database_database_exception.patch"
"1818692","files/drupal-clean_site_error_message-1818692-38.patch"
"1864014","files/field_plugins_exception-1864014-10.patch"
"1895004","files/user_cookie_save-add-domain.patch"
"1926228","files/1926228.css_gz_gzip_admin.6.patch"
"1951546","files/drupal-8-1951546-5.patch"
"1982200","files/drupal8.markup.1982200-12.patch"
"2005546","files/2005546-modify-bartik-for-site-elements-17.patch"
"2035825","files/batch-storage-phpunit-tests-2035825-11.patch"
"2056899","files/twig_specialVars.patch"
"2078015","files/drupal8.views-module.2078015-1.patch"
"2112679","files/2112679_1_getUsername.patch"
"111322","files/confirm_property_with_js_and_tests-111322-32.patch"
"384150","files/drupal-add-content-description-384150-61.patch"
"585172","files/585172-drupal-color_rewrite-31.patch"
"749748","files/issues/drupal.form-js.22.patch"
"920056","files/920056-tokens-user-format-name-D8_0.patch"
"1010136","files/1010136-iterative-drupalget-16.patch"
"1143082","files/1143082-cron_timer.patch"
"1218640","files/bartik-term-label-smaller-1218640-25.patch"
"1331852","files/menu_4.patch"
"1411914","files/8.x-bugfix-1411914-post_error-2.patch"
"1476782","files/sqlite_fetch_fix_2.patch"
"1533406","files/drupal-coding-standards-1533406-28.patch"
"1635882","files/1635882-3.patch"
"1715450","files/forum-index_update_disable-1715450-1.patch"
"1765984","files/core-views-updated-docs-1765984-60.patch"
"1805576","files/drupal8.db-uuid-type.2.patch"
"1829810","files/simpletest_field_info_cache_clear.patch"
"1851412","files/drupal-add-run-cron-flag-0.patch"
"1875996","files/deriver-1875996-10.patch"
"1962922","files/drupal-uninitialized_user-1962922-1.patch"
"1987890","files/drupal8.update-module.1987890-6.patch"
"2030513","files/2030513-expand-action-with-methods-15.patch"
"2042879","files/core-2042879-demonstrate-block-regions-test.patch"
"2062477","files/form-required-use-element-2062477-3.patch"
"2097585","files/plugin-2097585-3.patch"
"2116327","files/Drupal-DrupalDateTimeDocumentationFix-2116327-6.patch"
"207029","files/drupal-8.x_local_tasks_cannot_receive_attributes-207029-11.patch"
"476294","files/issues/476294_user_path-24_0.patch"
"662940","files/drupal-seven-reordered-662940-20.patch"
"806708","files/lock_may_be_available-806708-4.patch"
"1060296","files/issues/patch_commit_7ab945d0d1f3.patch"
"1164760","files/drupal-1164760-154.patch"
"1246722","files/issues/1246722-replace-redundant-watchdog-icons-with-message-icons.patch"
"1359252","files/files2image-formatters-1359252-2.patch"
"1433124","files/user_logout_messages-1433124-5.patch"
"1504544","files/1504544-2.patch"
"1557888","files/1557888-1-D8.patch"
"1663198","files/1663198-clean-up-toolbar-css-6.patch"
"1738210","files/quote-field-name-1738210-3.patch"
"1783278","files/schema-relative-1783278-7-D8.patch"
"1810294","files/new_comments-1810294-6.patch"
"1836384","files/1836384-20.patch"
"1856188","files/codesnippets.patch"
"1885306","files/drupal-more-robust-cron-queue-1885306-3.d7.patch"
"1971296","files/1971296-7.patch"
"2019151","files/drupal-error_shutdown-2019151-1.patch"
"2030743","files/array-to-string-conversion-2030743-32.patch"
"2070581","files/drupal-classloader_themes-2070581-5.patch"
"2076321","files/link_widget_validate-2076321-1.patch"
"2102357","files/update-2102357-9-PASS.patch"
"303574","files/issues/303574_3.patch"
"514990","files/token-browser-proof-concept-v3.patch"
"726490","files/taxonomy-multiple-parents-726490-26.patch"
"888998","files/drupal-cron_is_running-888998_0_1.patch"
"993592","files/993592-user-vertical-tabs.025.patch"
"1117526","files/multiple-not-set-on-selects-1117526-15.patch"
"1199878","files/1199878-relative_autocomplete_url-8.x-11.patch"
"1446808","files/0001-1446808-hook_foo_info_push-example.patch"
"1530774","files/core-make_regions_classable-1530774-5.patch"
"1597784","files/drupal-get-query-array-to-parse-str-D7-1597784-1.patch"
"1683000","files/node_form_redirect.patch"
"1756348","files/1756348-3.patch"
"1800174","files/1800174-3-th-user-api.patch"
"1818764","files/1818764-wrong-update-email-subject-8.patch"
"1845370","files/1845370-remove-sorted-when-update-weight.patch"
"1864290","files/1864290-3.drupal8.user-picture-test.remove-vset.patch"
"1897806","files/1897806-1-lock-factory.patch"
"1926284","files/ssl-settings-1926284-3.patch"
"1953438","files/entity_reference-1953438-27.patch"
"1982230","files/locale-markup-1982230-8.patch"
"2005626","files/drupal-update_query_arguments-2005626-1.patch"
"2024043","files/2024043-15.patch"
"2037217","files/dynamic_options-2037217-8-fix.patch"
"2057641","files/drupal-hook_modules_preuninstall-2057641-1.patch"
"2078295","files/menu-2078295-3.patch"
"2091359","files/drupal-search-help-2091359.patch"
"115801","files/drupal_115801_user_registration_password_set_checkbox-76.patch"
"397962","files/issues/397962_fix_feed_link_0.patch"
"755586","files/drupal-755586-36.patch"
"923510","files/line_padding-923510-5.patch"
"1015236","files/issues/1015236-10.patch"
"1144644","files/drupal-1144644-7-enabling-myqsl-collation.patch"
"1218814","files/issues/number_field_validation-1218814-4_0.patch"
"1331922","files/field-module-1331922-1.patch"
"1412964","files/system-node-user-action-tests-1412964-17.patch"
"1476804","files/updater.patch"
"1539712","files/php-cs-fixer.patch"
"1639012","files/drupal8.js-errors.48.break-it.do-not-test.patch"
"1717914","files/1717914-1.drupal8.test-names.patch"
"1766036","files/exit.patch"
"1805594","files/1805594-1-include-headers.patch"
"1831286","files/1831286-16-site-schema.patch"
"1851460","files/core-1851460-1-flood-control-tuning.patch"
"1876394","files/drupal8.comment-module.1876394-7.patch"
"1911768","files/drupal_1911768_00.patch"
"1935734","files/node-condition-PASS.patch"
"2011066","files/DrupalCore-8.x-dev-node-access-api-grants-all-to-uid-zero-2011066-2.patch"
"2030571","files/block-entity-weight-property-methods-2030571-13.patch"
"2043163","files/taxonomy_term_ancestors-2043163-1.patch"
"2064573","files/theme-2064573-19.patch"
"2097671","files/entity-refenrence-user-current_user-service-instead-of-global-user-2097671-1.patch"
"2116391","files/Issue--by-hass-Tag-the-user-search-query-to-allow-query-alter-D7-do-not-test.patch"
"210974","files/drupal_core-add_another-d8-210974-5.patch"
"477170","files/477170-5-content_type_date_format.patch"
"667058","files/667058_libraries_directory.patch"
"815544","files/drupal8.language-system.815544-18.patch"
"1064882","files/issues/timezone_1064882_1.patch"
"1164766","files/core-menu-add-path-column-1164766-1.patch"
"1252640","files/taxonomy_assumes_multi_value.patch"
"1359718","files/1359718-email_username-147.patch"
"1433796","files/1433796-configure-image-styles-10.patch"
"1512434","files/drupal-1512434-18.patch"
"1559668","files/D8core-run_cron_always_in_default_theme-1559668-1.patch"
"1663210","files/user-fix-css-1663210-9.patch"
"1742850","files/1742850-values-to-properties-9.patch"
"1785206","files/d8-comment_bulk_change-1785206-5.patch"
"1836860","files/i1836860-20.patch"
"1856444","files/d8-intsizes-1856444-3.patch"
"1885564","files/1885564-62-twig-theme-maintenance.patch"
"1944740","files/garbage-collection-min-age-1944740-4.patch"
"1972242","files/1972242-12.patch"
"1998702","files/1998702-profiles-use-symfony-request-1.patch"
"2071533","files/efq_opsie.patch"
"2076325","files/url-externalIsLocal-2076325-6.patch"
"2085571","files/admin_content_is_broken_test_only.patch"
"2104447","files/SillyArguments.patch"
"304540","files/304540-42-missing_grandaddy_theme-should_pass.patch"
"515454","files/content_type_invisible_when_type_equal_to_orig_type-515454-28.patch"
"890804","files/890804-2.patch"
"994360","files/drupal-7.x-fix_states_disabled_checked-994360-31-do-not-test.patch"
"1120798","files/theme-system-file-extension-removal-1120798-3.patch"
"1202484","files/d8-identify-pagers-1202484-0.patch"
"1288276","files/1288276-6-field_requirements.patch"
"1387560","files/summary_html_corrector-1387560-1.patch"
"1446932","files/1446932_6.patch"
"1533112","files/drupal8.contact-module.1533112-20.patch"
"1600670","files/core-do-not-remove-double-quotes-on-postgresql-column-names-1600670-10.patch"
"1697954","files/statistics-fix-top-pages-titles.patch"
"1758818","files/drupal8-translations-languages-files-available-for-installer-1758818.patch"
"1800546","files/1800546-2-th-node-api.patch"
"1820254","files/filestorageextends-8.patch"
"1846070","files/discovery-exceptions-1846070-12_0.patch"
"1864708","files/1864708-pager-whitespace.patch"
"1898420","files/twig-1898420-110.patch"
"1928324","files/drupal_1928324_01.patch"
"1953672","files/core--8.x--1953672-8-field-apply-to-all-ux.patch"
"1982266","files/link-module-1982266-5.patch"
"2005970","files/2005970-114.patch"
"2025259","files/2025259-24.patch"
"2078417","files/factory-2078417-27.patch"
"2092245","files/svgz_3.patch"
"2112899","files/node_reference-2112899-3.patch"
"400450","files/400450-75-node.patch"
"590328","files/tableheader-class_2.patch"
"767404","files/drupal-template_preprocess_menu_tree.d8.patch"
"925474","files/core_url_alias_unique_925474_3.patch"
"1145076","files/core-union-order-by-1145076-18.patch"
"1219040","files/system-head_title-1219040-16.patch"
"1332598","files/comment_docs-1332598-37.patch"
"1419036","files/form_no_label_class-1419036-18.patch"
"1476810","files/drupal-drupal_serve_page_from_cache-can-serve-uncompressed-1476810-43.patch"
"1540390","files/1540390_3_drush_sh_remove.patch"
"1643386","files/core-js-machine-name-1643386-6.patch"
"1719648","files/1719648.16.drupal.module-install-missing-throw.patch"
"1766486","files/taxonomy-multiple-deletion-messages-1766486-2.patch"
"1805624","files/1805624-1-move-assert.patch"
"1831674","files/Nodefaultlabel-1831674-66_0.patch"
"1851520","files/service-derivative-discovery.patch"
"1876718","files/drupal8.table-column-sort.5.patch"
"1911876","files/drupal-imgaltplain-1911876-2.patch"
"1937686","files/password_confirm_js_settings-1937686-5.patch"
"1966346","files/1966346-cache-per-user-1.patch"
"1988138","files/1988138-14.patch"
"2014771","files/plugin-2014771-1.patch"
"2030585","files/drupal8.breakpoint-module.2030585-34.patch"
"2098047","files/2098047-2.patch"
"2116897","files/yml-module-cleanup-VERSION.patch"
"214114","files/valid-email-address-rfc2822-214114-9.patch"
"478994","files/display-installed-core-version-478994.patch"
"667100","files/issues/667100-3_0.patch"
"819222","files/color-819222-38.patch"
"951298","files/batch-with-response-28.patch"
"1066060","files/1066060-13-token_email_fix.patch"
"1164790","files/issues/themesettings_12.patch"
"1253774","files/1253774_module_order_by_dependencies-9.patch"
"1360466","files/remove_maxlength_when_long-1360466-1-D7.patch"
"1433844","files/file-field-unlocking-schema-has-data-1433844-4.patch"
"1514760","files/1514760_1.patch"
"1562802","files/1562802-default-image-field-cardinality-3.patch"
"1785390","files/drupal-add_query_tag_to_user_admin_account_query-1785390-5.patch"
"1811792","files/drupal8.menu-title-frontpage.1.patch"
"1837054","files/1837054-drupal-meta-refactor-account-workflow-and-config-7.patch"
"1885714","files/1885714-2.patch"
"1919930","files/entity-form-id-1919930-10.patch"
"1944922","files/vdc-1944922-8.patch"
"1974048","files/interdiff-1974048-22-25.patch"
"2001922","files/node-2001922-9.patch"
"2020691","files/D7_options_module_description-2020691-1.do-not-test.patch"
"2031301","files/2031301-47.patch"
"2052751","files/widget-2052751-11.patch"
"2077977","files/file_form-2077977-1.patch"
"2086407","files/drupal_2086407_1.patch"
"2105123","files/plugin-2105123-23.patch"
"326210","files/issues/326201.patch"
"733054","files/issues/733054_settings_variable_only.patch"
"1123154","files/locale_rebuild_js-4.patch"
"1292930","files/drupal-ordered_results-1292930-16.patch"
"1390716","files/1390716-kill-hook-form_5.patch"
"1447860","files/show-machine-name.patch"
"1533196","files/1533196-41.patch"
"1699378","files/1699378-token-replacements-for-entity-reference-views-selection-arguments-75.patch"
"1800774","files/1800774-1-th-menu-api.patch"
"1820512","files/1820512-5-breakpoint_0.patch"
"1846078","files/update_helper_install_function_working_doc.patch"
"1870786","files/drupal-1870786-1.patch"
"1898422","files/1898422-52-twig-language.patch"
"1955268","files/bartik-mobile-form-styles-1955268-16.patch"
"1982606","files/1982606-5-user-watchdog.patch"
"2006348","files/entity-2006348-54-no-api-change.patch"
"2040375","files/drupal8.tour-module.2040375-7.patch"
"2059375","files/update-module-notifications-settings-d8-2059441-6.patch"
"2078593","files/drupal8.views_module-WizardPluginBase_coding_standards-just_baseTable_withoutcomments-2078593-7c.patch"
"2095627","files/remove-acccount-attr-for-current-user-service-form-base-2095627-1.patch"
"2113089","files/2113089-3.patch"
"121362","files/drupal.sanitize_aliases_121362-39_0.patch"
"400982","files/Drupal_8.x-book-title-400982-9.patch"
"774876","files/ajax_form_cache-774876-35.patch"
"929096","files/js-hook-page-build-929096-19.patch"
"1017050","files/drop-table-test-1017050-12.patch"
"1145080","files/core-union-count-query-1145080-40.patch"
"1220410","files/1220410-menu-query-params.patch"
"1337008","files/taxonomy-parents-memory-usage-1337008-4.patch"
"1481148","files/1481148-7-simpletest-button-submit-d7.patch"
"1542030","files/runtests-use-shebang-do-not-test.patch"
"1723108","files/core-throw_exception_in_node_save-1723108-15.patch"
"1772316","files/drupal-8.x-allow_profile_change_sys_req-1772316-21.patch"
"1805808","files/drupal8.test-globals.patch"
"1831890","files/drupal-remove-machine-name-1831890-16.patch"
"1852484","files/core-1852484-1-user-admin-collapse-email.patch"
"1877372","files/install-backend-test-improvements-1877372-26_8.patch"
"1912102","files/drupal-use_static_caching_system_region_list-1912102-2.patch"
"1937914","files/breakpoint_13.patch"
"1988712","files/1988712-tax-hierarchy-10.patch"
"2015535","files/better_instantiate_entity_controllers-2015535-27.patch"
"2030587","files/drupal8.breakpoint-module.2030587-22.patch"
"2044399","files/tour-user-edit-page-2044399-10_2.patch"
"2066445","files/2066445-ajax_test-controller-11.patch"
"2080745","files/entity-label-plugin-2080745-1.patch"
"2098549","files/Tour-make_the_nub_point_on_the_target-2098549-5.patch"
"2117261","files/vdc-2117261-2.patch"
"490310","files/filter-autop-6.patch"
"849602","files/drupal_user_access_user-849602-24.patch"
"953340","files/inconsistency-in-drupal_add_js-and-drupal_add_css-and-external-files-953340-15.patch"
"1067620","files/1067620-image-desp-37.patch"
"1171172","files/1171172-8.patch"
"1259892","files/1259892-d7-27.patch"
"1361742","files/allow-configurable-cookie-prefix-1361742-1.patch"
"1520716","files/core-file-display-default-1520716-1.patch"
"1563612","files/Issue-1563612-by-hass-HTML-code-in-thead-labels-is-c.patch"
"1667822","files/drupal8.simpletest-cache.0.patch"
"1748460","files/reset-removed-1748460-1-do-not-test.patch"
"1813488","files/user_permission_descriptions-1813488-16.patch"
"1837100","files/1837100-7-readmore.patch"
"1857792","files/session-exception-1857792-1.patch"
"1921136","files/1921136-1-tour-previous-button.patch"
"1945262","files/core-js-lib-diet-1945262-4.patch"
"1975126","files/drupal_1975126_01.patch"
"2002226","files/2002226-1-template-analyze.patch"
"2031599","files/2031599-3.patch"
"2053505","files/add-tem-not-when-reset-alphabetical-d8-2053505-11.patch"
"2073075","files/issue-2073075.patch"
"2077983","files/drupal8.language-module.2077983-1.patch"
"2086919","files/2086919-3.patch"
"2105825","files/UpdateDoctrine.patch"
"342316","files/342316_option_add_attributes-74.patch"
"525716","files/525716-33-with_image.patch"
"734536","files/new-password-link-lanugage-734536-34.patch"
"898656","files/consistent_quotes_around_links-898656-6.patch"
"999338","files/drupal8.theme-image-attributes.999338-21.patch"
"1124516","files/extend_title_field-1124516_0.patch"
"1294964","files/drupal-1294964-3.patch"
"1392528","files/color-support_rgba-1392528-5-7.x-do-not-test.patch"
"1448796","files/ajax_render_alter_settings-1448796-6.patch"
"1533228","files/drupal-dblog-coding-standards-1533228-8.patch"
"1618016","files/field_ui_1618016_1_field_list_hook.patch"
"1701150","files/do1701150-subrequest-on-iis.patch"
"1762572","files/theme_get_setting-comments-1762572-1.patch"
"1821454","files/1821454-8.patch"
"1846162","files/1846162-4-MultipleWidgetBase_0.patch"
"1872404","files/drupal7-one_time_pw_message_when_logged_in-1872404-3-do-not-test.patch"
"1898452","files/1898452-73-twig-simpletest.patch"
"1930934","files/drupal_user_picture_1930934_19.patch"
"1955874","files/1955874_4.patch"
"2027447","files/tour-plugin-exception.patch"
"2040823","files/2040823-12-tour-menu-page.patch"
"2060053","files/form.inc_dir-2060053-4.patch"
"2078601","files/block-2078601-7.patch"
"2095689","files/overlay-use-current_service-service-instead-of-_account-attr-2095689-1.patch"
"2113243","files/drupal_2113243_3.patch"
"123217","files/drupal-login-block-action-123217-14-do-not-test.patch"
"402760","files/drupal-unify_delete-402760-14.patch"
"619704","files/619704-page-token.patch"
"783230","files/forum-783230-21.patch"
"931794","files/issues/rename-file_temporary_path-to-file_directory_temp-931794-5.patch"
"1025314","files/auto-commit-7.patch"
"1148856","files/pgsql_schema_mysql_key_length-1148856-12.patch"
"1337546","files/core-bypass-reorder-1337546-5.patch"
"1422108","files/system-compatibility_message-1422108-4.patch"
"1542570","files/dir-core-check_for_name_of_install_dir-1542570_1.patch"
"1649062","files/menu-handle_duplicates-1649062-04.patch"
"1723446","files/drupal-avoid_term_css_class-1723446-9.patch"
"1773822","files/drupal8.inc-database.7.patch"
"1805920","files/1805920-6.standard-profile-modules.patch"
"1832300","files/drupal_1832300_40.patch"
"1852722","files/taxonomy_rendered_view_mode.patch"
"1880196","files/0001-every-module-can-provide-a-src-folder-for-recursive-.patch"
"1937978","files/clean-language-fallback-get-candidates-1937978-34.patch"
"1966760","files/drupal-node-access-service-1966760-1.patch"
"2030591","files/expand-category-methods-2030591-5.patch"
"2047119","files/d8_primitive_leftover_0.patch"
"2066451","files/rename-properties-2066451-4_0.patch"
"2098703","files/phpunit-functions.patch"
"226587","files/issues/rtl-sidebars-nomenclature-226587-93.patch"
"491022","files/remove_menu_weight-491022-18.patch"
"686892","files/issues/update-javascript-changelog.patch"
"955658","files/field-undefined-index-module-955658-52.patch"
"1172048","files/format-date-integer.patch"
"1261212","files/drupal8_static_cache_simpletest-1261212-11.patch"
"1364670","files/1364670-11-info-for-dimensions.patch"
"1434670","files/1434670.patch"
"1521996","files/user_reset_password_privacy-1521996-10.patch"
"1668748","files/use_your_eyes_there_is_a_huge_wall_of_text_just_five_loc_below-1668748-8.patch"
"1751044","files/core-js-1751044-9.patch"
"1788602","files/1788602-locale-rebuild-js.patch"
"1814566","files/1814566-pager-missing-page_2.patch"
"1837334","files/1837334_5_install_eaccelerator.patch"
"1858486","files/ajax_password_reset-1858486-5.patch"
"1885978","files/move-entity-test-under-entity-1862398-3.patch"
"1921144","files/1921144-8-tour-tip-permission.patch"
"1946090","files/d7-mail-wordwrap.patch"
"1977028","files/drupal-1977028-3.patch"
"2003392","files/2003392-12.patch"
"2020985","files/action-2020985-1.patch"
"2031797","files/2031797-03-html-data-wrapper.patch"
"2054203","files/drupal-2054203-2.patch"
"2077985","files/locale-2077985-2.patch"
"2105837","files/ZFUpdate.patch"
"343444","files/file_scan_directory_max_depth-343444-18.patch"
"549710","files/549710_11_field_preview.patch"
"734710","files/module-enabled-before-uninstall-734710-22.patch"
"903042","files/drupal-maintenance_theme-903042-14.patch"
"1002164","files/1002164-5.patch"
"1125024","files/issues/1125024-remoteschema8x-1.patch"
"1207354","files/drupal-add_new_module-1207354-5.patch"
"1310642","files/tabledrag-depth-1310642-2.patch"
"1398616","files/user-1398616-20.patch"
"1533236","files/drupal-core-make-file-module-pass-coder-review-1533236-4_0.patch"
"1619884","files/1619884.patch"
"1702132","files/drupal-8.x-ajax-showeffect-not-function-1702132-3.patch"
"1763002","files/empty-menu-link-title-1763002-12.patch"
"1803656","files/1803656-11-tests-consistency.patch"
"1821974","files/d8-allow-plus-for-username.patch"
"1847174","files/path-alias-validation-1847174-7-complete.patch"
"1873430","files/skip_redirection-1873430-3.patch"
"1898466","files/twig-update_conversion-1898466-88.patch"
"1956016","files/1956016.drupal.user-filter-raw-perms.patch"
"1985406","files/1985406-views-field-formatter-settings-states_0.patch"
"2008386","files/drupal_2008386_00.patch"
"2027727","files/Fix_Sqlite_Schema_definition_and_add_unit_tests-2027727-16.patch"
"2040845","files/tour-people-2040845-10.patch"
"2078803","files/contextual_links_seven-2078803-11.patch"
"2095709","files/system-use-current_user-service-instead-of-_account-attr-2095709-1.patch"
"2113679","files/2113679-1.patch"
"140363","files/140363-track-activity-74.patch"
"428850","files/book_parent_access-428850-10.patch"
"631852","files/http_query_string-631852-5.patch"
"935878","files/935878-field_single_markup-7.patch"
"1027074","files/issues/1027074_shortcut_string_context_plural.patch"
"1149078","files/states-multi-select-fix-1149078-19.patch"
"1226786","files/issues/d8_drupal_realpath-1226786-8.patch"
"1342504","files/1342504-data-uri-support_0.patch"
"1490386","files/seven-hide-breadcrumbs-1490386-13.patch"
"1542632","files/1542632.patch"
"1650894","files/xmlrpc-coder_fixes_part_0f_1518116-1650894-1.patch"
"1723864","files/term_autocomplete_multiplication-1723864-14.patch"
"1774002","files/1774002-9-verbose-browser.patch"
"1806606","files/range-reset-1806606-3-d8.patch"
"1852738","files/drupal_1852738_00.patch"
"1912610","files/drupal-rename-layout-classes-1054616-1.patch"
"1938084","files/comment-node_creation-1938084-4.patch"
"1966990","files/drupal_process_states-1966990-3.patch"
"1992148","files/prevent-compatibility-mode-1992148-14.patch"
"2016739","files/drupal-require_subdomain_for_mailto_links-2016739-11.patch"
"2030597","files/custom-block-entity-expand-custom-block-with-methods-2030597-9_0.patch"
"2066557","files/drupal8.system-module.2066557-5-a.patch"
"2119997","files/drupal8.datetime-module.2119997-9.patch"
"257916","files/core-update-search-totals-257916-59.patch"
"492380","files/add-test-for-rendering-the-local-task-492380-29-must-fail.patch"
"861136","files/issues/ajax.js_861136-1.patch"
"969180","files/entity-969180-15.patch"
"1173706","files/1173706-12.patch"
"1266568","files/lock_force_release-4.patch"
"1367354","files/1367354-15-field-theme-hook-suggestion.patch"
"1522154","files/isDefaultRevision-check-in-hook-node-update-1522154-6.patch"
"1574764","files/drupal-1574764-10.patch"
"1671182","files/1671182-better-access-check-for-user-admin.D7.do-not-test.patch"
"1751070","files/1751070-states-document-cleanup-13.patch"
"1792010","files/run-tests-id.patch"
"1814762","files/1814762-Clarify-SQLite-GREATEST-9.patch"
"1838890","files/core-return_option_in_Update_and_DeleteQuery-1838890-5.patch"
"1860594","files/drupal8.test-randomstring.0.patch"
"1887058","files/drupal-1887058-2.patch"
"1921544","files/1921544-current-path-condition-112.patch"
"1946240","files/1946240.theme_status_messages_reset-6.patch"
"1978244","files/1978244_4.patch"
"2003710","files/bartik-rtl-menu-breakpoints-2003710-7.patch"
"2021959","files/drupal8.base-system.2021959-26.patch"
"2032641","files/drupal_2032641_1.patch"
"2054345","files/form.inc-coder-2054345-4.patch"
"2077989","files/menu_form-2077989-1.patch"
"2086981","files/2086981-1-vt_publishing_options.patch"
"2105949","files/2105949-1-silence_mkdir_errors.patch"
"343626","files/make-it-referrer-343626-31.patch"
"734878","files/drupal-raw-username-token-734878-16.patch"
"911352","files/supportsForeignKeyConstraints_1.patch"
"1003692","files/1003692-45-number-int_too_big.patch"
"1128096","files/1128096-element_children-cleanup_0.patch"
"1208146","files/user-uitext-1208146-16.patch"
"1313560","files/remove-skipdotsrecursivedirectoryiterator-1313560_0.patch"
"1452896","files/d8-clickLink_test-1452896-33.patch"
"1533254","files/make-node-module-pass-coder-review-1533254-1.patch"
"1619960","files/1619960.patch"
"1707926","files/1707926-spacing-field-prefixes-6.patch"
"1763040","files/drupal8.color-module.1763040-12.patch"
"1804446","files/bartik-rtl-layout-1804446-2.patch"
"1822572","files/1822572-unset_nonexistent_filters-1.patch"
"1874552","files/drupal-1874552-1.patch"
"1899616","files/table_headings_small_screens-1899616-1.patch"
"1932262","files/custom_menu_block_fix_d8-1932262-3.patch"
"1956134","files/block_links-1956134-69-1.patch"
"1986418","files/form-items-styling-1986418-65.patch"
"2008566","files/system-system-phpunit-2008566-8.patch"
"2040861","files/tour-extend-2040861.patch"
"2060401","files/remove_render_authorize-2060401-2.patch"
"2078867","files/drupal8.form_test.2078867-11.patch"
"2113911","files/modal-style.2113911-3.patch"
"140860","files/issues/140860-quote-tables-but-has-issues.patch"
"431612","files/stop_using_post_as_noun-431612-42.patch"
"653234","files/drupal8.install-sidebar.41.patch"
"936704","files/confirm_clear-936704-17.patch"
"1035504","files/flood_is_allowed_dynamic_query-1035504-4.patch"
"1149900","files/1149900-notices-when-no-logo-d8-new-3.patch"
"1232346","files/menu-get-item-rebuild-1232346-22_0.patch"
"1347920","files/text-summary-1347920-1.patch"
"1424262","files/drupal-change_default_pagerlimit-1424262-2.patch"
"1490446","files/menu_float-1490446-2.patch"
"1543858","files/router-1543858-3.patch"
"1727392","files/derivativefix.patch"
"1774516","files/d8-admin_theme_minimal-1774516-5.patch"
"1806970","files/add_schema_version_image_upgrade.patch"
"1833076","files/content-translation-expand-outdated-1833076-33.patch"
"1852896","files/database-schema-1852896-75.patch"
"1881622","files/drupal_core_link_to_content_12.patch"
"1912706","files/drupal-book_array_to_menu_link_entity-1912706-1.patch"
"1938910","files/drupal8.image-module-inline-action.1938910-17.patch"
"1969594","files/drupal-exposed_form_desc_summary-1969594-29.patch"
"1993452","files/install_merge_translate_tasks-1993452-9.patch"
"2017257","files/seven-layout-styles-2017257-22.patch"
"2030607","files/expand-entitydisplay-with-methods-2030607-9.patch"
"2047733","files/drupal-integer-list-2047733-1.patch"
"2067259","files/drupal8.simpletest_assertMail.patch"
"2081521","files/drupal-add-id-to-li-vertical-tab-button-2081521-2.patch"
"2099447","files/issue-2099447.patch"
"2120877","files/2120877-tracker-no-loger-creates-tools-menu-link-2.patch"
"261148","files/drupal-261148-57-menu_get_ancestors-D6-do-not-test.patch"
"495030","files/kyrgyz_spelling-495030-33-D6.patch"
"691110","files/691110-22_step-back-taxonomy.patch"
"863594","files/UI-text-clean-error-message-863594-7.patch"
"972528","files/pressflow-972528-22-packet-size-watchdog-D6-do-not-test.patch"
"1077578","files/1077578-page-tpl-sidebar-74.patch"
"1180992","files/1180992-optgroup-validation-19_0.patch"
"1269780","files/drupal-6.x-symlinksifownermatch-1269780-21.patch"
"1370346","files/number-separators-1370346-29.patch"
"1440534","files/1440534-Gzipped-javascript-sends-wrong-Content-Type-.patch"
"1522384","files/drupal-coding-standards-1522384-10.patch"
"1576552","files/drupal-path-prevent_notices-1576552-1.patch"
"1671194","files/drupal-user_cookie_load-1671194-11.patch"
"1751334","files/core-1751334-5.patch"
"1792310","files/1792310.patch"
"1860910","files/1860910.patch"
"1889810","files/1889810-views-cache-rebuilds.patch"
"1946526","files/drupal-1946526-33.patch"
"1978714","files/1978714-13.patch"
"2022599","files/edit_toggle_label-2022599-5.patch"
"2032645","files/drupal-item_list_to_links-2032645-14.patch"
"2055183","files/core-js-jqueryUI-deps.patch"
"2073759","files/toolkit-operations-2073759-136-combined.patch"
"2077993","files/node-2077993-1.patch"
"2087009","files/block-order-2087009-6.patch"
"2106117","files/UpdateTwig.patch"
"345747","files/add_database_connection_information-345747-0.patch"
"550258","files/path-alias-preview-test-550258-23.patch"
"911630","files/add_table_doc-911630-3.patch"
"1130122","files/drupal-1130122-batchapi-cleanup-tests-and-fix.patch"
"1209786","files/drupal-1209786-26.patch"
"1320996","files/fixed-drupal-get-js-bug-1320996-10.patch"
"1404480","files/file_ajax-1404480-6.patch"
"1468420","files/d8-front-into-custom-link-1468420-34.patch"
"1533266","files/1533266-3-path-coder-review.patch"
"1627276","files/menu_link_get_preferred-1627276-19-D7-do-not-test.patch"
"1707998","files/allow-vhost-rewrite-rules-7.patch"
"1763068","files/remove-po-14.patch"
"1804522","files/1804522-15-tests-consistency.patch"
"1825466","files/1825466-fix_and_tests_config_merges_upgrades_overrides_integer_keys-23_0.patch"
"1847932","files/drupal-1847932-uuid-pattern-class-const.patch"
"1874814","files/core-mergequery_comments-1874814-7.patch"
"1899858","files/1899858-move-tests-1.patch"
"1933286","files/drupal-1933286-1.patch"
"1956466","files/views-1956466-7.patch"
"1987418","files/1987418-49-twig-user.patch"
"2008884","files/2008884-4.patch"
"2029155","files/theme_system-2029155-9.patch"
"2041213","files/move-queries-7.patch"
"2060425","files/2060425.patch"
"2079143","files/menu-help-2079143-2.patch"
"2095787","files/locale-import-with-config-update-2095787-4.patch"
"2114819","files/UpdateGuzzle.patch"
"177124","files/177124-sort-before-element-validation.patch"
"439350","files/drupal8.node-theme-add-list.12.patch"
"655178","files/655178_consistent_shebangs.patch"
"791072","files/791072-17.patch"
"939498","files/utf8_BOM_for_bot_test_0.patch"
"1038652","files/1038652-no-comment-body-field-74-tests-and-fix.patch"
"1153072","files/1153072-30.patch"
"1237012","files/ajax-empty_status_messages-1237012-4.patch"
"1425588","files/drupal-1425588-32-combined.patch"
"1494670","files/file_create_url_this_server_7.patch"
"1548204","files/1548204-6-fieldify_signatures.patch"
"1659682","files/random-unsafe-string-1659682-6.patch"
"1728688","files/core_serial_unsigned_not_null_1.patch"
"1774618","files/D7_add_charset_definition_xml_rpc-1774618.patch"
"1807002","files/drupal-taxonomy-hinting-1807002-7.patch"
"1834266","files/drupal-Allow-only-valid-choices-1834266-46.patch"
"1882712","files/drupal-language-admin-form-1882712-15.patch"
"1912884","files/temp-store-1.patch"
"1938916","files/1938916-3-locale-tables.patch"
"1969814","files/system-list-cache-1969814-3-test-only.patch"
"1993868","files/t-context-8x.patch"
"2017433","files/2017433-1-hook_ranking-doccumentation.patch"
"2030637","files/core_views-Convert_FieldPluginBase_constants_to_class_constants_reroll2-2060119-3_0.patch"
"2048171","files/2048171-1.patch"
"1921970","files/drupal-cleanup_comments-1912946-3-do-not-test.patch"
"86461","files/drupal-7-86461-53-combined.patch"
"349008","files/issues/comment-admin_fieldset_on_create-6.x.patch"
"1804974","files/db-doc-comments.patch"
"2009906","files/image_validate_is_image_missing_toolkit-2009906-8.patch"
"1350300","files/1350300-Fix-options-fieldset-summary-on-node-form_0.patch"
"1778880","files/negative-test-message.d7.patch"
"1970968","files/core-book-navigation-block-ids-dont-match-1970968-1.patch"
"1186582","files/transactionLayers_stores_keys-1186582-4.patch"
"1671498","files/system_element_info_reference-1671498-2.patch"
"1818124","files/message_format-1818124-1.patch"
"1924106","files/fix-comments-1924106-1_0.patch"
"2033983","files/language_types_set-2033983-1.patch"
"2107673","files/double-slash-2107673-1.patch"
"1055150","files/1055150-2-user-time-zone-text-brianV.patch"
"1855002","files/drupal8.field-ui.module.1855002-22.patch"
"915266","files/added-update-overview-915266-12.patch"
"1809614","files/1809614-views-handler_types_in_views_ui_config_item_form.patch"
"1916680","files/drupal_error_handler_backtrace.6.do-not-test.patch"
"1971208","files/1971208-drupal-utilize-is-a-crap-word.patch"
"877674","files/issues/877674-attributs-optional.patch"
"1845104","files/1845104-drupal_set_message-zero.patch"
"2080343","files/unused-local-variables-2080343-1.patch"
"1942682","files/1942682-dblog-detail-1.patch"
"1998676","files/language-help-text-1998676-6_0.patch"
"1379082","files/use-realpaths-for-archiver-calls_0.patch"
"2112775","files/base_form_id_empty.patch"
"585268","files/585268.maintenance_mode_message_exceptions.patch"
"2080427","files/2080427-remove-unused-variables.patch"
"1919238","files/drupal8.donothing_8.patch"
"2019511","files/language-show-warning-switcher-block-2019511-1.patch"
"119038","files/284917-show_auth_user_role-followup-31.patch"
"1017020","files/1017020-install-timezone-detect.patch"
"2064639","files/2064639-12.patch"
"2080559","files/drupal-core-remove-unused-local-variable-2080559.patch"
"1665782","files/book_navigation_ol-1665782-14.patch"
"1747358","files/1747358-set_initial_by_default_for_text_field-8-8.x.patch"
"2072597","files/core-remove-unused-vars-fieldpluginbase.php-2072597-3.patch"
"519940","files/issues/_theme_process_registry_2.patch"
"892140","files/illegal_url_characters-892140-6.patch"
"1759090","files/themesettings-CSS-cleanup-D8-1759090-4.patch"
"1929862","files/pdo-exception-invalid-utf8-1929862-7.patch"
"604282","files/default-value-help-text-604282-2.patch"
"1421132","files/drupal-tableselect-defaults-fixntest-1421132-1.patch"
"1645328","files/drupal_theme_fieldset_title_isset_1.patch"
"681042","files/681042.patch"
"1788272","files/cache-null-3.patch"
"1802128","files/1802128.8-username-string-inconsistency-d8.patch"
"1983832","files/system-document_menu_parts_limit-1983832-1.patch"
"1224892","files/Duplicate_code_in_mysql_schema.inc_createKeySql=createKeysSqlHelper-1224892-24.patch"
"1481156","files/1481156-documentation-followup-33.patch"
"2081137","files/15-2081137-remove-unused-variable-databases-from-bootstrap-inc.patch"
"852352","files/drupal_rewrite_settings_d7-852352-17.patch"
"1574760","files/drupal-add_drupalcreatecomment-1574760-15.patch"
"2086977","files/D8-onion-theme_form_element-2086977-2.patch"
"1452128","files/misleading_error_message-1452128-5.patch"
"1932090","files/drupal8_core-option_skip_db_init-1932090-01.patch"
"2060085","files/undefined_index_description_system_requirements-2060085-14.patch"
"783888","files/drupal-783888-remove_point_in_link.patch"
"2047491","files/drupal-trailing-url-colon-2047491-1.patch"
"2099341","files/2099341-views_ui_css-1.patch"
"689396","files/install-profile-is-referred-to-module-during-installation-689396-16.patch"
"1073094","files/1073094-theme_node_admin_overview-4.patch"
"1439336","files/drupal_1439336_node_revision_acess_14.patch"
"1403500","files/database_host_undefined-1403500-12.patch"
"1847280","files/rename-some-tests-classes.patch"
"2095771","files/DefaultViewsTest.patch"
"1659358","files/user-invoke-hook_user_role_delete-sooner-drupal7_0.patch"
"1815640","files/drupal_action_admin_delete_form_submit.patch"
"1840034","files/improve_readability_template_preprocess_forum_topic_list-1840034-1.patch"
"2004366","files/2004366-make_the_node_field_revision_log_nullable-11.patch"
